,tensorboard_name,p_kmeans,tac_nof,tac_filt,vis_nof,vis_filt,final_val
0,viskmeans_trial_19thfeb_20,1.0,0.8072139789809042,0.9288557652217239,0,0.9994949517828046,0.9573293260063034
0,viskmeans_trial_19thfeb_20,0.9,0.8007463154508107,0.9222637210319291,0,0.9992424276742068,0.9573293260063034
0,viskmeans_trial_19thfeb_20,0.8,0.8001244246070065,0.9177861124721926,0,0.9984848553484137,0.9573293260063034
0,viskmeans_trial_19thfeb_20,0.7,0.8011194449752125,0.9125622324089506,0,0.9992424276742068,0.9573293260063034
0,viskmeans_trial_19thfeb_20,0.6,0.7992537786711508,0.9136816352161009,0,1.0,0.9573293260063034
0,viskmeans_trial_19thfeb_20,0.5,0.7977612383330046,0.9017413374203355,0,0.9989899035656091,0.9573293260063034
0,viskmeans_trial_19thfeb_20,0.4,0.8041045220930185,0.8931592453771563,0,0.996969708890626,0.9573293260063034
0,viskmeans_trial_19thfeb_20,0.3,0.8004975576898945,0.8619403412092977,0,0.9911616399432673,0.9573293260063034
0,viskmeans_trial_19thfeb_20,0.2,0.8043532816331778,0.7833333816101302,0,0.9454545884421377,0.9573293260063034
0,viskmeans_trial_19thfeb_20,0.1,0.8049751733666035,0.5690298814382126,0,0.6929293301972476,0.9573293260063034
