,tensorboard_name,p_kmeans,tac_nof,tac_filt,vis_nof,vis_filt,final_val
0,Feb24_feb21_viskmeans_curric_overnight50_prange_noaug_noagg0,1.0,1.0,0.9666666984558105,0,0,0
0,Feb24_feb21_viskmeans_curric_overnight50_prange_noaug_noagg0,0.9,1.0,0.9666666984558105,0,0,0
0,Feb24_feb21_viskmeans_curric_overnight50_prange_noaug_noagg0,0.8,0.9000000357627869,0.9666666984558105,0,0,0
0,Feb24_feb21_viskmeans_curric_overnight50_prange_noaug_noagg0,0.7,0.9666666984558105,0.9333333969116211,0,0,0
0,Feb24_feb21_viskmeans_curric_overnight50_prange_noaug_noagg0,0.6,0.9333333969116211,0.8666667342185974,0,0,0
0,Feb24_feb21_viskmeans_curric_overnight50_prange_noaug_noagg0,0.5,0.8666667342185974,0.8000000715255737,0,0,0
0,Feb24_feb21_viskmeans_curric_overnight50_prange_noaug_noagg0,0.4,0.8666667342185974,0.7333333492279053,0,0,0
0,Feb24_feb21_viskmeans_curric_overnight50_prange_noaug_noagg0,0.3,0.7333333492279053,0.7333333492279053,0,0,0
0,Feb24_feb21_viskmeans_curric_overnight50_prange_noaug_noagg0,0.2,0.7333333492279053,0.7666667103767395,0,0,0
0,Feb24_feb21_viskmeans_curric_overnight50_prange_noaug_noagg0,0.1,0.5333333611488342,0.5,0,0,0
