-2.315928459167480469e+00,-8.423429131507873535e-01,-1.408723950386047363e+00
2.315927982330322266e+00,-8.423429131507873535e-01,-1.408723950386047363e+00
-2.271481513977050781e+00,-6.293097734451293945e-01,-1.451984524726867676e+00
2.271481037139892578e+00,-6.293097734451293945e-01,-1.451984524726867676e+00
-2.501745700836181641e+00,-7.376447319984436035e-02,-1.413079142570495605e+00
2.501745223999023438e+00,-7.376447319984436035e-02,-1.413079142570495605e+00
-2.537094593048095703e+00,1.223908364772796631e-01,-1.434120655059814453e+00
2.537094116210937500e+00,1.223908364772796631e-01,-1.434120655059814453e+00
-2.303638458251953125e+00,6.030765771865844727e-01,-1.426870226860046387e+00
2.303637981414794922e+00,6.030765771865844727e-01,-1.426870226860046387e+00
-2.005237340927124023e+00,1.226309537887573242e+00,-1.451886415481567383e+00
2.005236864089965820e+00,1.226309537887573242e+00,-1.451886415481567383e+00
-1.666507840156555176e+00,1.438766956329345703e+00,-1.424995303153991699e+00
1.666507363319396973e+00,1.438766956329345703e+00,-1.424995303153991699e+00
-1.189436435699462891e+00,1.835335373878479004e+00,-1.469218611717224121e+00
-8.303529024124145508e-01,1.932474851608276367e+00,-1.504354000091552734e+00
-4.993510246276855469e-01,1.988110542297363281e+00,-1.464192271232604980e+00
-1.748578399419784546e-01,1.991796255111694336e+00,-1.520047664642333984e+00
1.748573631048202515e-01,1.991796255111694336e+00,-1.520047664642333984e+00
4.993505477905273438e-01,1.988110542297363281e+00,-1.464192271232604980e+00
8.303524255752563477e-01,1.932474851608276367e+00,-1.504354000091552734e+00
1.189435839653015137e+00,1.835335373878479004e+00,-1.469218611717224121e+00
-2.373148202896118164e+00,-1.263392210006713867e+00,-1.248545527458190918e+00
2.373147726058959961e+00,-1.263392210006713867e+00,-1.248545527458190918e+00
-2.394173622131347656e+00,-9.613577127456665039e-01,-1.247439622879028320e+00
2.394173145294189453e+00,-9.613577127456665039e-01,-1.247439622879028320e+00
-2.395444869995117188e+00,-5.296303033828735352e-01,-1.267205476760864258e+00
2.395444393157958984e+00,-5.296303033828735352e-01,-1.267205476760864258e+00
-2.413714408874511719e+00,-2.348369061946868896e-01,-1.168457627296447754e+00
2.413713932037353516e+00,-2.348369061946868896e-01,-1.168457627296447754e+00
-2.453994274139404297e+00,1.682224720716476440e-01,-1.388020753860473633e+00
-2.346867084503173828e+00,1.673543453216552734e-01,-1.233978509902954102e+00
2.346866607666015625e+00,1.673543453216552734e-01,-1.233978509902954102e+00
2.453993797302246094e+00,1.682224720716476440e-01,-1.388020753860473633e+00
-2.266412734985351562e+00,4.689148962497711182e-01,-1.262421965599060059e+00
2.266412258148193359e+00,4.689148962497711182e-01,-1.262421965599060059e+00
-2.106606960296630859e+00,7.016226649284362793e-01,-1.160843849182128906e+00
-2.011327981948852539e+00,9.154296517372131348e-01,-1.288690924644470215e+00
2.011327505111694336e+00,9.154295921325683594e-01,-1.288690924644470215e+00
2.106606483459472656e+00,7.016226649284362793e-01,-1.160843849182128906e+00
-1.835803627967834473e+00,1.159032583236694336e+00,-1.281801342964172363e+00
-1.660813808441162109e+00,1.295767307281494141e+00,-1.210070133209228516e+00
1.660813331604003906e+00,1.295767188072204590e+00,-1.210070133209228516e+00
1.835803151130676270e+00,1.159032464027404785e+00,-1.281801223754882812e+00
-1.443968772888183594e+00,1.462445974349975586e+00,-1.339270472526550293e+00
-1.176360130310058594e+00,1.615622878074645996e+00,-1.228505492210388184e+00
-9.093934893608093262e-01,1.716942667961120605e+00,-1.233835339546203613e+00
9.093930125236511230e-01,1.716942667961120605e+00,-1.233835339546203613e+00
1.176359534263610840e+00,1.615622997283935547e+00,-1.228505492210388184e+00
1.443968296051025391e+00,1.462445974349975586e+00,-1.339270472526550293e+00
-7.914322614669799805e-01,1.817577481269836426e+00,-1.362267851829528809e+00
-5.310038924217224121e-01,1.901880860328674316e+00,-1.235666751861572266e+00
-1.857684403657913208e-01,1.969667315483093262e+00,-1.276673197746276855e+00
1.857679635286331177e-01,1.969667315483093262e+00,-1.276673197746276855e+00
5.310034155845642090e-01,1.901880979537963867e+00,-1.235666871070861816e+00
7.914317846298217773e-01,1.817577481269836426e+00,-1.362267851829528809e+00
-7.765098214149475098e-01,-2.578802585601806641e+00,-7.015134692192077637e-01
-6.542814970016479492e-01,-2.656695365905761719e+00,-8.469586968421936035e-01
-1.445904076099395752e-01,-2.745748281478881836e+00,-7.470124959945678711e-01
1.445899307727813721e-01,-2.745748281478881836e+00,-7.470124959945678711e-01
6.542810201644897461e-01,-2.656695365905761719e+00,-8.469586968421936035e-01
7.765093445777893066e-01,-2.578802585601806641e+00,-7.015134692192077637e-01
-1.595719337463378906e+00,-2.160111188888549805e+00,-9.245707988739013672e-01
1.595718979835510254e+00,-2.160111188888549805e+00,-9.245707988739013672e-01
-1.899840950965881348e+00,-1.875718951225280762e+00,-9.204800724983215332e-01
-1.743145465850830078e+00,-1.982351779937744141e+00,-7.795271873474121094e-01
1.743144989013671875e+00,-1.982351779937744141e+00,-7.795271873474121094e-01
1.899840354919433594e+00,-1.875718712806701660e+00,-9.204800128936767578e-01
-2.180297851562500000e+00,-1.517029404640197754e+00,-9.334512352943420410e-01
-2.054344892501831055e+00,-1.698791384696960449e+00,-9.458421468734741211e-01
2.054344415664672852e+00,-1.698791384696960449e+00,-9.458421468734741211e-01
2.180297374725341797e+00,-1.517029404640197754e+00,-9.334512352943420410e-01
-2.271927118301391602e+00,-1.241586685180664062e+00,-9.018318057060241699e-01
2.271926879882812500e+00,-1.241586685180664062e+00,-9.018316864967346191e-01
-2.362986087799072266e+00,-8.659949302673339844e-01,-8.748261332511901855e-01
2.362985610961914062e+00,-8.659949302673339844e-01,-8.748261332511901855e-01
-2.408202409744262695e+00,-5.332435965538024902e-01,-8.226096034049987793e-01
2.408201932907104492e+00,-5.332435965538024902e-01,-8.226096034049987793e-01
-2.405030488967895508e+00,-1.722631603479385376e-01,-9.564044475555419922e-01
2.405030012130737305e+00,-1.722631603479385376e-01,-9.564044475555419922e-01
-2.332574129104614258e+00,1.960106343030929565e-01,-9.288269877433776855e-01
2.332573413848876953e+00,1.960106343030929565e-01,-9.288269877433776855e-01
-2.230424165725708008e+00,5.162780880928039551e-01,-9.004075527191162109e-01
2.230423688888549805e+00,5.162780880928039551e-01,-9.004075527191162109e-01
-2.148054838180541992e+00,7.091336250305175781e-01,-8.843581080436706543e-01
-2.003741979598999023e+00,9.418220520019531250e-01,-8.532971739768981934e-01
2.003741502761840820e+00,9.418220520019531250e-01,-8.532972335815429688e-01
2.148054361343383789e+00,7.091336250305175781e-01,-8.843581080436706543e-01
-1.861977815628051758e+00,1.126410007476806641e+00,-8.151710629463195801e-01
-1.705900311470031738e+00,1.277583122253417969e+00,-8.503465652465820312e-01
1.705899834632873535e+00,1.277583122253417969e+00,-8.503465652465820312e-01
1.861977338790893555e+00,1.126410007476806641e+00,-8.151710629463195801e-01
-1.495127439498901367e+00,1.463262438774108887e+00,-7.990411520004272461e-01
-1.219481110572814941e+00,1.637459158897399902e+00,-8.231405019760131836e-01
-9.662018418312072754e-01,1.749093890190124512e+00,-9.375220537185668945e-01
9.662013649940490723e-01,1.749093890190124512e+00,-9.375220537185668945e-01
1.219480633735656738e+00,1.637459158897399902e+00,-8.231404423713684082e-01
1.495126962661743164e+00,1.463262438774108887e+00,-7.990411520004272461e-01
-7.903525233268737793e-01,1.829906821250915527e+00,-9.149003028869628906e-01
-4.699819087982177734e-01,1.942349791526794434e+00,-8.446294069290161133e-01
-1.395095735788345337e-01,1.976053476333618164e+00,-9.142074584960937500e-01
1.395090967416763306e-01,1.976053357124328613e+00,-9.142073988914489746e-01
4.699814319610595703e-01,1.942349910736083984e+00,-8.446294069290161133e-01
7.903521060943603516e-01,1.829906821250915527e+00,-9.149002432823181152e-01
-8.377968668937683105e-01,-2.515636920928955078e+00,-5.274183750152587891e-01
-4.860785305500030518e-01,-2.634545564651489258e+00,-5.233197212219238281e-01
-1.863829344511032104e-01,-2.692491769790649414e+00,-5.807149410247802734e-01
1.863824576139450073e-01,-2.692492246627807617e+00,-5.807149410247802734e-01
4.860780537128448486e-01,-2.634545564651489258e+00,-5.233197212219238281e-01
8.377963900566101074e-01,-2.515636920928955078e+00,-5.274183750152587891e-01
-1.511649370193481445e+00,-2.151470899581909180e+00,-5.224360227584838867e-01
-1.234309196472167969e+00,-2.338408470153808594e+00,-5.651376843452453613e-01
1.234308719635009766e+00,-2.338408470153808594e+00,-5.651377439498901367e-01
1.511648893356323242e+00,-2.151470899581909180e+00,-5.224360227584838867e-01
-1.851904749870300293e+00,-1.841973543167114258e+00,-4.848539829254150391e-01
-1.675604104995727539e+00,-2.018297195434570312e+00,-4.965945482254028320e-01
1.675603628158569336e+00,-2.018297195434570312e+00,-4.965945482254028320e-01
1.851904273033142090e+00,-1.841973543167114258e+00,-4.848539829254150391e-01
-2.017743825912475586e+00,-1.595320701599121094e+00,-5.354874134063720703e-01
2.017743349075317383e+00,-1.595320701599121094e+00,-5.354874134063720703e-01
-2.235054016113281250e+00,-1.236786961555480957e+00,-5.433580279350280762e-01
2.235053539276123047e+00,-1.236787080764770508e+00,-5.433580279350280762e-01
-2.334996700286865234e+00,-9.187378883361816406e-01,-5.278721451759338379e-01
2.334996223449707031e+00,-9.187378883361816406e-01,-5.278721451759338379e-01
-2.422525882720947266e+00,-5.359861254692077637e-01,-5.144875049591064453e-01
2.422525405883789062e+00,-5.359860658645629883e-01,-5.144875049591064453e-01
-2.397602319717407227e+00,-1.558328717947006226e-01,-4.912382364273071289e-01
2.397601842880249023e+00,-1.558328717947006226e-01,-4.912382066249847412e-01
-2.344910860061645508e+00,1.800053566694259644e-01,-5.446687340736389160e-01
2.344910383224487305e+00,1.800053566694259644e-01,-5.446687340736389160e-01
-2.241314888000488281e+00,5.085865259170532227e-01,-5.159935355186462402e-01
2.241314411163330078e+00,5.085864663124084473e-01,-5.159935355186462402e-01
-2.139736175537109375e+00,7.410817742347717285e-01,-6.304344534873962402e-01
-2.027822017669677734e+00,9.271926879882812500e-01,-5.394282937049865723e-01
2.027821540832519531e+00,9.271926879882812500e-01,-5.394282937049865723e-01
2.139735698699951172e+00,7.410817742347717285e-01,-6.304344534873962402e-01
-1.805961012840270996e+00,1.199260234832763672e+00,-5.665614008903503418e-01
-1.670145034790039062e+00,1.341375827789306641e+00,-5.613581538200378418e-01
1.670144557952880859e+00,1.341375827789306641e+00,-5.613581538200378418e-01
1.805960536003112793e+00,1.199260234832763672e+00,-5.665614008903503418e-01
-1.497359514236450195e+00,1.475708246231079102e+00,-5.173425674438476562e-01
-1.312606096267700195e+00,1.629605531692504883e+00,-5.124872922897338867e-01
1.312605619430541992e+00,1.629605531692504883e+00,-5.124873518943786621e-01
1.497359037399291992e+00,1.475708246231079102e+00,-5.173425674438476562e-01
-1.104043602943420410e+00,1.770433187484741211e+00,-5.292083024978637695e-01
-8.801401853561401367e-01,1.872760415077209473e+00,-5.153267979621887207e-01
-5.363661050796508789e-01,1.983808279037475586e+00,-5.297873020172119141e-01
-1.855654418468475342e-01,2.034231662750244141e+00,-5.400123596191406250e-01
1.855649948120117188e-01,2.034231662750244141e+00,-5.400123596191406250e-01
5.363656282424926758e-01,1.983808279037475586e+00,-5.297872424125671387e-01
8.801397085189819336e-01,1.872760415077209473e+00,-5.153268575668334961e-01
1.104043006896972656e+00,1.770433187484741211e+00,-5.292083024978637695e-01
-8.403447866439819336e-01,-2.468680381774902344e+00,-2.252287864685058594e-01
-5.597392916679382324e-01,-2.548423051834106445e+00,-1.610413640737533569e-01
-1.759153157472610474e-01,-2.603952646255493164e+00,-1.872691363096237183e-01
1.759148240089416504e-01,-2.603952169418334961e+00,-1.872691363096237183e-01
5.597388148307800293e-01,-2.548423051834106445e+00,-1.610413640737533569e-01
8.403443098068237305e-01,-2.468680381774902344e+00,-2.252287864685058594e-01
-1.274699211120605469e+00,-2.219064474105834961e+00,-1.528265476226806641e-01
-1.006390929222106934e+00,-2.376823902130126953e+00,-1.473310142755508423e-01
1.006390452384948730e+00,-2.376823902130126953e+00,-1.473310142755508423e-01
1.274698734283447266e+00,-2.219064474105834961e+00,-1.528265476226806641e-01
-1.784944176673889160e+00,-1.765253782272338867e+00,-4.899372532963752747e-02
-1.642862319946289062e+00,-1.972945690155029297e+00,-2.158455997705459595e-01
1.642861962318420410e+00,-1.972945570945739746e+00,-2.158455997705459595e-01
1.784943699836730957e+00,-1.765253782272338867e+00,-4.899372532963752747e-02
-1.963622450828552246e+00,-1.561635971069335938e+00,-1.997957974672317505e-01
1.963621973991394043e+00,-1.561635971069335938e+00,-1.997957974672317505e-01
-2.162677288055419922e+00,-1.220111370086669922e+00,-1.804933249950408936e-01
-2.096524238586425781e+00,-1.281246781349182129e+00,-2.122462913393974304e-02
2.096523761749267578e+00,-1.281246781349182129e+00,-2.122462913393974304e-02
2.162676811218261719e+00,-1.220111370086669922e+00,-1.804933398962020874e-01
-2.261590957641601562e+00,-9.654138088226318359e-01,-2.073945999145507812e-01
2.261590480804443359e+00,-9.654138088226318359e-01,-2.073945999145507812e-01
-2.345579147338867188e+00,-5.482561588287353516e-01,-1.538912206888198853e-01
2.345578908920288086e+00,-5.482561588287353516e-01,-1.538912206888198853e-01
-2.321701049804687500e+00,-1.488641053438186646e-01,-1.651085764169692993e-01
2.321700811386108398e+00,-1.488641053438186646e-01,-1.651085764169692993e-01
-2.282006502151489258e+00,2.036894112825393677e-01,-2.152903079986572266e-01
2.282006025314331055e+00,2.036894112825393677e-01,-2.152903079986572266e-01
-2.165819406509399414e+00,4.853842854499816895e-01,-2.163492292165756226e-01
-2.067474365234375000e+00,5.639369487762451172e-01,-6.412702798843383789e-02
2.067473888397216797e+00,5.639369487762451172e-01,-6.412702798843383789e-02
2.165819168090820312e+00,4.853842854499816895e-01,-2.163492292165756226e-01
-1.959281921386718750e+00,8.717126846313476562e-01,-2.315652817487716675e-01
1.959281563758850098e+00,8.717126846313476562e-01,-2.315652817487716675e-01
-1.800992131233215332e+00,1.116047501564025879e+00,-2.524679005146026611e-01
-1.606671214103698730e+00,1.316596865653991699e+00,-1.785787492990493774e-01
1.606670737266540527e+00,1.316596865653991699e+00,-1.785787492990493774e-01
1.800991654396057129e+00,1.116047501564025879e+00,-2.524679005146026611e-01
-1.489562749862670898e+00,1.437762022018432617e+00,-2.313737720251083374e-01
-1.255635619163513184e+00,1.617624521255493164e+00,-1.812751293182373047e-01
-9.971650838851928711e-01,1.708127260208129883e+00,-3.738251328468322754e-02
9.971646070480346680e-01,1.708127260208129883e+00,-3.738251328468322754e-02
1.255635142326354980e+00,1.617624521255493164e+00,-1.812751293182373047e-01
1.489562273025512695e+00,1.437762022018432617e+00,-2.313737720251083374e-01
-8.972029685974121094e-01,1.805332541465759277e+00,-1.923539489507675171e-01
-5.124685764312744141e-01,1.903419852256774902e+00,-1.744574457406997681e-01
-1.605654507875442505e-01,1.955702781677246094e+00,-1.344497054815292358e-01
1.605649739503860474e-01,1.955702781677246094e+00,-1.344497054815292358e-01
5.124680399894714355e-01,1.903419852256774902e+00,-1.744574457406997681e-01
8.972024917602539062e-01,1.805332541465759277e+00,-1.923539489507675171e-01
-3.684423863887786865e-01,-2.459389925003051758e+00,1.604908853769302368e-01
-1.418571323156356812e-01,-2.502416133880615234e+00,1.105813235044479370e-01
1.418566554784774780e-01,-2.502416133880615234e+00,1.105813235044479370e-01
3.684419095516204834e-01,-2.459389925003051758e+00,1.604908853769302368e-01
-1.149110555648803711e+00,-2.170544862747192383e+00,1.961477994918823242e-01
-9.062803983688354492e-01,-2.292136907577514648e+00,1.910137534141540527e-01
-5.520402789115905762e-01,-2.398742914199829102e+00,2.180413156747817993e-01
-1.080516800284385681e-01,-2.424917221069335938e+00,2.798339426517486572e-01
1.080512106418609619e-01,-2.424917221069335938e+00,2.798339426517486572e-01
5.520398020744323730e-01,-2.398743152618408203e+00,2.180413156747817993e-01
9.062800407409667969e-01,-2.292137145996093750e+00,1.910137534141540527e-01
1.149110078811645508e+00,-2.170544862747192383e+00,1.961477994918823242e-01
-1.542951345443725586e+00,-1.892540931701660156e+00,1.668476760387420654e-01
-1.307006955146789551e+00,-2.013065099716186523e+00,2.661794424057006836e-01
1.307006478309631348e+00,-2.013065338134765625e+00,2.661794424057006836e-01
1.542950868606567383e+00,-1.892540931701660156e+00,1.668476760387420654e-01
-1.879141926765441895e+00,-1.528129458427429199e+00,1.170027330517768860e-01
-1.727164745330810547e+00,-1.600207328796386719e+00,2.910635173320770264e-01
1.727164268493652344e+00,-1.600207328796386719e+00,2.910635173320770264e-01
1.879141449928283691e+00,-1.528129458427429199e+00,1.170027330517768860e-01
-2.123111724853515625e+00,-1.100328803062438965e+00,1.159626320004463196e-01
-1.985204339027404785e+00,-1.269818544387817383e+00,2.182223349809646606e-01
1.985203981399536133e+00,-1.269818544387817383e+00,2.182223349809646606e-01
2.123111248016357422e+00,-1.100328803062438965e+00,1.159626320004463196e-01
-2.177500963211059570e+00,-9.238268733024597168e-01,1.713679432868957520e-01
2.177500486373901367e+00,-9.238268733024597168e-01,1.713679432868957520e-01
-2.248647689819335938e+00,-5.747894048690795898e-01,1.695392876863479614e-01
2.248647212982177734e+00,-5.747894048690795898e-01,1.695392876863479614e-01
-2.234372615814208984e+00,-1.811605393886566162e-01,2.103938311338424683e-01
2.234372138977050781e+00,-1.811605393886566162e-01,2.103938311338424683e-01
-2.176503896713256836e+00,1.481800526380538940e-01,1.372170746326446533e-01
-2.065530300140380859e+00,3.113028705120086670e-01,2.708601057529449463e-01
2.065529823303222656e+00,3.113028705120086670e-01,2.708601057529449463e-01
2.176503419876098633e+00,1.481800675392150879e-01,1.372170895338058472e-01
-1.980419158935546875e+00,5.707830190658569336e-01,1.751481443643569946e-01
1.980418562889099121e+00,5.707830190658569336e-01,1.751481443643569946e-01
-1.829552054405212402e+00,8.499987125396728516e-01,1.569341421127319336e-01
-1.668024897575378418e+00,9.980964660644531250e-01,2.759147882461547852e-01
1.668024420738220215e+00,9.980964660644531250e-01,2.759147882461547852e-01
1.829551577568054199e+00,8.499987125396728516e-01,1.569341421127319336e-01
-1.500209569931030273e+00,1.242289781570434570e+00,1.558475345373153687e-01
-1.298386335372924805e+00,1.338270545005798340e+00,2.940060198307037354e-01
1.298385977745056152e+00,1.338270545005798340e+00,2.940060198307037354e-01
1.500208973884582520e+00,1.242289781570434570e+00,1.558475345373153687e-01
-1.194418668746948242e+00,1.529001116752624512e+00,1.185261011123657227e-01
-8.775230646133422852e-01,1.645463585853576660e+00,1.838309466838836670e-01
-5.542414784431457520e-01,1.703706622123718262e+00,2.490070313215255737e-01
-1.725338697433471680e-01,1.739655613899230957e+00,2.760772407054901123e-01
1.725333929061889648e-01,1.739655613899230957e+00,2.760772407054901123e-01
5.542410016059875488e-01,1.703706622123718262e+00,2.490070313215255737e-01
8.775225877761840820e-01,1.645463585853576660e+00,1.838309466838836670e-01
1.194418191909790039e+00,1.529001235961914062e+00,1.185261011123657227e-01
-7.474574446678161621e-01,1.767554879188537598e+00,2.578589133918285370e-02
-5.059213042259216309e-01,1.782648324966430664e+00,1.234999150037765503e-01
-1.792905926704406738e-01,1.856964945793151855e+00,1.081380322575569153e-01
1.792901009321212769e-01,1.856964945793151855e+00,1.081380322575569153e-01
5.059208273887634277e-01,1.782648324966430664e+00,1.234999150037765503e-01
7.474569678306579590e-01,1.767554879188537598e+00,2.578589133918285370e-02
-9.315243959426879883e-01,-2.179178714752197266e+00,4.288427829742431641e-01
-5.238668918609619141e-01,-2.216713666915893555e+00,5.277982950210571289e-01
-1.609813123941421509e-01,-2.278600454330444336e+00,5.387609004974365234e-01
1.609808355569839478e-01,-2.278600454330444336e+00,5.387609004974365234e-01
5.238664150238037109e-01,-2.216713666915893555e+00,5.277982950210571289e-01
9.315239191055297852e-01,-2.179178714752197266e+00,4.288427829742431641e-01
-1.422961115837097168e+00,-1.842606663703918457e+00,3.697208464145660400e-01
-1.196782350540161133e+00,-1.908867835998535156e+00,5.785890817642211914e-01
-8.894912004470825195e-01,-2.046475648880004883e+00,6.435949206352233887e-01
8.894907236099243164e-01,-2.046475648880004883e+00,6.435949206352233887e-01
1.196781873703002930e+00,-1.908867955207824707e+00,5.785891413688659668e-01
1.422960638999938965e+00,-1.842606663703918457e+00,3.697208464145660400e-01
-1.542298913002014160e+00,-1.604613304138183594e+00,5.220404267311096191e-01
1.542298436164855957e+00,-1.604613304138183594e+00,5.220403671264648438e-01
-1.856270074844360352e+00,-1.181653738021850586e+00,4.713675975799560547e-01
-1.701007008552551270e+00,-1.287349343299865723e+00,6.221475601196289062e-01
1.701006531715393066e+00,-1.287349343299865723e+00,6.221475601196289062e-01
1.856269478797912598e+00,-1.181653618812561035e+00,4.713675379753112793e-01
-1.952248692512512207e+00,-8.939189910888671875e-01,5.182971954345703125e-01
1.952248215675354004e+00,-8.939189910888671875e-01,5.182971358299255371e-01
-2.128403425216674805e+00,-5.022524595260620117e-01,4.288008213043212891e-01
-1.981888413429260254e+00,-5.429561138153076172e-01,6.113303899765014648e-01
1.981887936592102051e+00,-5.429561138153076172e-01,6.113303899765014648e-01
2.128402948379516602e+00,-5.022524595260620117e-01,4.288008213043212891e-01
-2.112903118133544922e+00,-1.860980540513992310e-01,4.461938738822937012e-01
-1.989827752113342285e+00,-1.586232632398605347e-01,6.148062348365783691e-01
1.989827156066894531e+00,-1.586232781410217285e-01,6.148062348365783691e-01
2.112902641296386719e+00,-1.860980540513992310e-01,4.461938738822937012e-01
-1.939370036125183105e+00,1.894356608390808105e-01,5.720616579055786133e-01
1.939369559288024902e+00,1.894356608390808105e-01,5.720616579055786133e-01
-1.879388332366943359e+00,4.564664363861083984e-01,4.861108958721160889e-01
-1.689833045005798340e+00,5.479991436004638672e-01,6.782212853431701660e-01
1.689832568168640137e+00,5.479991436004638672e-01,6.782212853431701660e-01
1.879387855529785156e+00,4.564664363861083984e-01,4.861108958721160889e-01
-1.551831364631652832e+00,8.588075637817382812e-01,5.464744567871093750e-01
1.551831007003784180e+00,8.588075637817382812e-01,5.464744567871093750e-01
-1.473537325859069824e+00,1.066310286521911621e+00,3.604432046413421631e-01
-1.201821088790893555e+00,1.207795977592468262e+00,5.386068820953369141e-01
-8.824354410171508789e-01,1.349559307098388672e+00,6.430429220199584961e-01
8.824349641799926758e-01,1.349559307098388672e+00,6.430429220199584961e-01
1.201820611953735352e+00,1.207795858383178711e+00,5.386068224906921387e-01
1.473536849021911621e+00,1.066310286521911621e+00,3.604432046413421631e-01
-1.058731436729431152e+00,1.485171318054199219e+00,3.587205410003662109e-01
-9.074012637138366699e-01,1.469158172607421875e+00,4.651322364807128906e-01
-5.205948948860168457e-01,1.552062392234802246e+00,5.024560689926147461e-01
-1.469310522079467773e-01,1.585799813270568848e+00,4.917384088039398193e-01
1.469305753707885742e-01,1.585799813270568848e+00,4.917384088039398193e-01
5.205944180488586426e-01,1.552062392234802246e+00,5.024561285972595215e-01
9.074007868766784668e-01,1.469158172607421875e+00,4.651322364807128906e-01
1.058730959892272949e+00,1.485171318054199219e+00,3.587205410003662109e-01
-2.599606812000274658e-01,-2.102597236633300781e+00,7.162154316902160645e-01
2.599602043628692627e-01,-2.102597236633300781e+00,7.162154316902160645e-01
-8.691158294677734375e-01,-1.908185005187988281e+00,7.529497146606445312e-01
-5.575383901596069336e-01,-1.910248517990112305e+00,8.132638931274414062e-01
-1.434167623519897461e-01,-1.916961669921875000e+00,9.352623820304870605e-01
1.434162855148315430e-01,-1.916961669921875000e+00,9.352623820304870605e-01
5.575379133224487305e-01,-1.910248517990112305e+00,8.132638931274414062e-01
8.691153526306152344e-01,-1.908185005187988281e+00,7.529497146606445312e-01
-1.210961341857910156e+00,-1.528190493583679199e+00,7.844533324241638184e-01
-9.262484312057495117e-01,-1.564802050590515137e+00,9.151505231857299805e-01
-5.012105107307434082e-01,-1.584819197654724121e+00,9.815909266471862793e-01
-2.000469863414764404e-01,-1.677356719970703125e+00,1.029039740562438965e+00
2.000465095043182373e-01,-1.677356719970703125e+00,1.029039740562438965e+00
5.012100338935852051e-01,-1.584819197654724121e+00,9.815909266471862793e-01
9.262480735778808594e-01,-1.564801931381225586e+00,9.151505231857299805e-01
1.210960865020751953e+00,-1.528190493583679199e+00,7.844533324241638184e-01
-1.549540162086486816e+00,-1.228469252586364746e+00,8.054161071777343750e-01
-1.231298089027404785e+00,-1.208074569702148438e+00,9.579828381538391113e-01
-9.542274475097656250e-01,-1.308214664459228516e+00,1.020863771438598633e+00
9.542269706726074219e-01,-1.308214664459228516e+00,1.020863771438598633e+00
1.231297612190246582e+00,-1.208074569702148438e+00,9.579827189445495605e-01
1.549539923667907715e+00,-1.228469252586364746e+00,8.054161667823791504e-01
-1.842196941375732422e+00,-8.063814043998718262e-01,7.309650182723999023e-01
-1.632291555404663086e+00,-8.892437219619750977e-01,9.114085435867309570e-01
-1.309588432312011719e+00,-8.447046279907226562e-01,1.025854825973510742e+00
1.309588074684143066e+00,-8.447046279907226562e-01,1.025854825973510742e+00
1.632291078567504883e+00,-8.892437219619750977e-01,9.114085435867309570e-01
1.842196464538574219e+00,-8.063814043998718262e-01,7.309650182723999023e-01
-1.826936244964599609e+00,-5.403708219528198242e-01,8.095591664314270020e-01
-1.610471606254577637e+00,-5.259969830513000488e-01,9.690015316009521484e-01
1.610471129417419434e+00,-5.259969830513000488e-01,9.690015316009521484e-01
1.826935768127441406e+00,-5.403708219528198242e-01,8.095591664314270020e-01
-1.855249762535095215e+00,-1.832658946514129639e-01,7.894281148910522461e-01
-1.622355222702026367e+00,-1.827576160430908203e-01,9.564906954765319824e-01
-1.336513638496398926e+00,-7.298192381858825684e-02,1.042410135269165039e+00
1.336513161659240723e+00,-7.298192381858825684e-02,1.042410135269165039e+00
1.622354745864868164e+00,-1.827576160430908203e-01,9.564908146858215332e-01
1.855249285697937012e+00,-1.832658946514129639e-01,7.894281148910522461e-01
-1.805149555206298828e+00,5.410781875252723694e-02,7.821626663208007812e-01
-1.529294252395629883e+00,1.474409103393554688e-01,9.621705412864685059e-01
1.529293894767761230e+00,1.474409103393554688e-01,9.621705412864685059e-01
1.805149078369140625e+00,5.410781875252723694e-02,7.821626663208007812e-01
-1.544998168945312500e+00,4.731525182723999023e-01,8.491467237472534180e-01
-1.290258765220642090e+00,4.669636785984039307e-01,1.015297412872314453e+00
-1.040668010711669922e+00,5.664343833923339844e-01,1.045017600059509277e+00
1.040667533874511719e+00,5.664343833923339844e-01,1.045017600059509277e+00
1.290258407592773438e+00,4.669636785984039307e-01,1.015297412872314453e+00
1.544997811317443848e+00,4.731525182723999023e-01,8.491467237472534180e-01
-1.229633927345275879e+00,8.024568557739257812e-01,8.613457679748535156e-01
-8.424422144889831543e-01,8.502899408340454102e-01,9.945529103279113770e-01
-4.863896369934082031e-01,9.684758782386779785e-01,1.006898403167724609e+00
-2.847059965133666992e-01,1.021026849746704102e+00,1.004393458366394043e+00
2.847055196762084961e-01,1.021026849746704102e+00,1.004393458366394043e+00
4.863891601562500000e-01,9.684758782386779785e-01,1.006898403167724609e+00
8.424417376518249512e-01,8.502899408340454102e-01,9.945529699325561523e-01
1.229633450508117676e+00,8.024568557739257812e-01,8.613457679748535156e-01
-1.108250141143798828e+00,1.071329355239868164e+00,7.699475884437561035e-01
-8.268715143203735352e-01,1.134756803512573242e+00,8.405254483222961426e-01
-5.136746168136596680e-01,1.231507539749145508e+00,8.368331789970397949e-01
-1.536495834589004517e-01,1.151491999626159668e+00,9.350245594978332520e-01
1.536491066217422485e-01,1.151491999626159668e+00,9.350245594978332520e-01
5.136741399765014648e-01,1.231507539749145508e+00,8.368331789970397949e-01
8.268709182739257812e-01,1.134756803512573242e+00,8.405254483222961426e-01
1.108249664306640625e+00,1.071329355239868164e+00,7.699475884437561035e-01
-9.586558490991592407e-02,1.448747634887695312e+00,7.250200510025024414e-01
9.586510807275772095e-02,1.448747634887695312e+00,7.250200510025024414e-01
-1.187955066561698914e-01,-1.567999839782714844e+00,1.077724575996398926e+00
1.187950298190116882e-01,-1.567999839782714844e+00,1.077724575996398926e+00
-8.299179077148437500e-01,-1.124637722969055176e+00,1.096301555633544922e+00
-5.134854316711425781e-01,-1.220403909683227539e+00,1.126623511314392090e+00
-1.716673970222473145e-01,-1.173435568809509277e+00,1.199705362319946289e+00
1.716669201850891113e-01,-1.173435568809509277e+00,1.199705362319946289e+00
5.134849548339843750e-01,-1.220403909683227539e+00,1.126623511314392090e+00
8.299174308776855469e-01,-1.124637722969055176e+00,1.096301555633544922e+00
-9.140327572822570801e-01,-9.064317345619201660e-01,1.101942896842956543e+00
-6.507042646408081055e-01,-9.055200815200805664e-01,1.192312479019165039e+00
6.507037878036499023e-01,-9.055200815200805664e-01,1.192312479019165039e+00
9.140322804450988770e-01,-9.064317345619201660e-01,1.101942896842956543e+00
-1.165101528167724609e+00,-4.960197508335113525e-01,1.104103088378906250e+00
1.165101051330566406e+00,-4.960197210311889648e-01,1.104103088378906250e+00
-1.296643257141113281e+00,-2.655297815799713135e-01,1.076904535293579102e+00
-9.206697344779968262e-01,-1.816316843032836914e-01,1.210125803947448730e+00
9.206692576408386230e-01,-1.816316843032836914e-01,1.210125803947448730e+00
1.296642780303955078e+00,-2.655297815799713135e-01,1.076904535293579102e+00
-1.219971895217895508e+00,1.222655177116394043e-01,1.071766257286071777e+00
-8.762232661247253418e-01,1.865155696868896484e-01,1.151962518692016602e+00
-5.188329219818115234e-01,2.740086317062377930e-01,1.270665764808654785e+00
5.188324451446533203e-01,2.740086317062377930e-01,1.270665764808654785e+00
8.762227892875671387e-01,1.865155696868896484e-01,1.151962518692016602e+00
1.219971418380737305e+00,1.222655251622200012e-01,1.071766257286071777e+00
-8.394657969474792480e-01,5.556121468544006348e-01,1.072304725646972656e+00
-5.910262465476989746e-01,4.954232275485992432e-01,1.141722679138183594e+00
-2.434983849525451660e-01,5.647012591361999512e-01,1.171685099601745605e+00
2.434979230165481567e-01,5.647012591361999512e-01,1.171685099601745605e+00
5.910257697105407715e-01,4.954231977462768555e-01,1.141722679138183594e+00
8.394653201103210449e-01,5.556121468544006348e-01,1.072304725646972656e+00
-5.120417475700378418e-01,7.882452607154846191e-01,1.073828577995300293e+00
-1.034939661622047424e-01,7.820219993591308594e-01,1.089635848999023438e+00
1.034934893250465393e-01,7.820219993591308594e-01,1.089635848999023438e+00
5.120412707328796387e-01,7.882452607154846191e-01,1.073828577995300293e+00
-2.238863110542297363e-01,-8.282276391983032227e-01,1.409140467643737793e+00
2.238858342170715332e-01,-8.282276391983032227e-01,1.409140467643737793e+00
