,tensorboard_name,p_kmeans,tac_nof,tac_filt,vis_nof,vis_filt,final_val
0,viskmeans_repeats_20thfeb_00,1.0,0.8266169606749691,0.8868159651756287,0,0.9989899035656091,0.9302208947848125
0,viskmeans_repeats_20thfeb_00,0.9,0.8340796490213764,0.8847015348832998,0,0.9979798071312181,0.9302208947848125
0,viskmeans_repeats_20thfeb_00,0.8,0.8315920838669165,0.8817164631032232,0,0.9974747571078214,0.9302208947848125
0,viskmeans_repeats_20thfeb_00,0.7,0.8279851185741709,0.8812189493606339,0,0.9954545606266368,0.9302208947848125
0,viskmeans_repeats_20thfeb_00,0.6,0.8319652213979123,0.8747512876097836,0,0.9936868873509493,0.9302208947848125
0,viskmeans_repeats_20thfeb_00,0.5,0.8283582507674374,0.8640547715016266,0,0.9931818409399553,0.9302208947848125
0,viskmeans_repeats_20thfeb_00,0.4,0.8287313882984332,0.842537361294476,0,0.9843434691429138,0.9302208947848125
0,viskmeans_repeats_20thfeb_00,0.3,0.82587069272995,0.8043532816331778,0,0.9525252996069012,0.9302208947848125
0,viskmeans_repeats_20thfeb_00,0.2,0.81654233185213,0.6758706774284591,0,0.8126263049515811,0.9302208947848125
0,viskmeans_repeats_20thfeb_00,0.1,0.7700249152397042,0.385820917673965,0,0.33914143253456464,0.9302208947848125
0,viskmeans_repeats_20thfeb_10,1.0,0.7366915852276247,0.8588308914383845,0,0.9580808543797695,0.9066265182322767
0,viskmeans_repeats_20thfeb_10,0.9,0.7378109871451535,0.8621891007494571,0,0.9558081247589805,0.9066265182322767
0,viskmeans_repeats_20thfeb_10,0.8,0.7356965586320677,0.856343325394303,0,0.9590909508141604,0.9066265182322767
0,viskmeans_repeats_20thfeb_10,0.7,0.7356965613009324,0.8592040271901372,0,0.9525253068317067,0.9066265182322767
0,viskmeans_repeats_20thfeb_10,0.6,0.733333374137309,0.8599502978040211,0,0.9512626736453085,0.9066265182322767
0,viskmeans_repeats_20thfeb_10,0.5,0.7319652144588641,0.8574627308703181,0,0.9436869124571482,0.9066265182322767
0,viskmeans_repeats_20thfeb_10,0.4,0.7345771558249174,0.8507463158066593,0,0.9292929723407283,0.9066265182322767
0,viskmeans_repeats_20thfeb_10,0.3,0.7296020281848623,0.8279851167949278,0,0.9075758023695513,0.9066265182322767
0,viskmeans_repeats_20thfeb_10,0.2,0.7269900894876736,0.7639303892406065,0,0.8065656992522153,0.9066265182322767
0,viskmeans_repeats_20thfeb_10,0.1,0.7282338720649036,0.5186567417721251,0,0.4931818450039083,0.9066265182322767
0,viskmeans_repeats_20thfeb_20,1.0,0.8235075082351913,0.8849502917545945,0,0.911111155242631,0.947289165244045
0,viskmeans_repeats_20thfeb_20,0.9,0.815422932603466,0.8866915845159274,0,0.9108586329402346,0.947289165244045
0,viskmeans_repeats_20thfeb_20,0.8,0.8192786520986415,0.8873134762493532,0,0.9020202448873809,0.947289165244045
0,viskmeans_repeats_20thfeb_20,0.7,0.8148010417596617,0.8863184505434178,0,0.9080808514898474,0.947289165244045
0,viskmeans_repeats_20thfeb_20,0.6,0.8154229299346013,0.8855721843776418,0,0.9027778199224761,0.947289165244045
0,viskmeans_repeats_20thfeb_20,0.5,0.816417960978266,0.8820895952964897,0,0.9030303458372752,0.947289165244045
0,viskmeans_repeats_20thfeb_20,0.4,0.8116915893198838,0.8675373570242925,0,0.9010101448405873,0.947289165244045
0,viskmeans_repeats_20thfeb_20,0.3,0.815298555502251,0.8363184501875692,0,0.8727273173404463,0.947289165244045
0,viskmeans_repeats_20thfeb_20,0.2,0.8024876046536574,0.7421642194932966,0,0.8027778222705378,0.947289165244045
0,viskmeans_repeats_20thfeb_20,0.1,0.7731343721275898,0.4773632114502921,0,0.4916666922244159,0.947289165244045
