,tensorboard_name,p_kmeans,tac_nof,tac_filt,vis_nof,vis_filt,final_val
0,viskmeans_repeats_20thfeb_00,1.0,0.8266169606749691,0.8868159651756287,0,0.9989899035656091,0.9302208947848125
0,viskmeans_repeats_20thfeb_00,0.9,0.8340796490213764,0.8847015348832998,0,0.9979798071312181,0.9302208947848125
0,viskmeans_repeats_20thfeb_00,0.8,0.8315920838669165,0.8817164631032232,0,0.9974747571078214,0.9302208947848125
0,viskmeans_repeats_20thfeb_00,0.7,0.8279851185741709,0.8812189493606339,0,0.9954545606266368,0.9302208947848125
0,viskmeans_repeats_20thfeb_00,0.6,0.8319652213979123,0.8747512876097836,0,0.9936868873509493,0.9302208947848125
0,viskmeans_repeats_20thfeb_00,0.5,0.8283582507674374,0.8640547715016266,0,0.9931818409399553,0.9302208947848125
0,viskmeans_repeats_20thfeb_00,0.4,0.8287313882984332,0.842537361294476,0,0.9843434691429138,0.9302208947848125
0,viskmeans_repeats_20thfeb_00,0.3,0.82587069272995,0.8043532816331778,0,0.9525252996069012,0.9302208947848125
0,viskmeans_repeats_20thfeb_00,0.2,0.81654233185213,0.6758706774284591,0,0.8126263049515811,0.9302208947848125
0,viskmeans_repeats_20thfeb_00,0.1,0.7700249152397042,0.385820917673965,0,0.33914143253456464,0.9302208947848125
