-2.238857150077819824e-01,-6.691805720329284668e-01,-2.228463649749755859e+00
2.238864302635192871e-01,-6.691805720329284668e-01,-2.228463649749755859e+00
-4.190790951251983643e-01,4.681809246540069580e-01,-2.138278722763061523e+00
4.190798103809356689e-01,4.681809246540069580e-01,-2.138278722763061523e+00
-4.499733448028564453e-03,-1.755723714828491211e+00,-1.818436980247497559e+00
4.500448703765869141e-03,-1.755723714828491211e+00,-1.818436980247497559e+00
-1.394196301698684692e-01,-1.598952889442443848e+00,-1.842536568641662598e+00
1.394203454256057739e-01,-1.598952889442443848e+00,-1.842536568641662598e+00
-9.160981178283691406e-01,-1.199013829231262207e+00,-1.830068230628967285e+00
-5.360693931579589844e-01,-1.223100900650024414e+00,-1.878894805908203125e+00
-1.417424380779266357e-01,-1.221280097961425781e+00,-1.936700820922851562e+00
1.417431384325027466e-01,-1.221279978752136230e+00,-1.936700820922851562e+00
5.360701680183410645e-01,-1.223100900650024414e+00,-1.878894805908203125e+00
9.160987734794616699e-01,-1.199013829231262207e+00,-1.830068230628967285e+00
-1.488842844963073730e+00,-7.441883087158203125e-01,-1.806963562965393066e+00
-1.238168001174926758e+00,-8.953192830085754395e-01,-1.825301408767700195e+00
-8.930035829544067383e-01,-8.019361495971679688e-01,-1.919855594635009766e+00
-5.608640313148498535e-01,-9.087368845939636230e-01,-1.992637515068054199e+00
-2.155169695615768433e-01,-9.153708815574645996e-01,-2.065546512603759766e+00
2.155176848173141479e-01,-9.153708815574645996e-01,-2.065546512603759766e+00
5.608647465705871582e-01,-9.087368845939636230e-01,-1.992637515068054199e+00
8.930041790008544922e-01,-8.019361495971679688e-01,-1.919855594635009766e+00
1.238168478012084961e+00,-8.953193426132202148e-01,-1.825301408767700195e+00
1.488843321800231934e+00,-7.441883087158203125e-01,-1.806963562965393066e+00
-1.575568318367004395e+00,-4.858575761318206787e-01,-1.805267453193664551e+00
-1.250014662742614746e+00,-5.073249340057373047e-01,-1.886536002159118652e+00
-6.098794937133789062e-01,-6.511346697807312012e-01,-2.040297031402587891e+00
6.098802089691162109e-01,-6.511346697807312012e-01,-2.040297031402587891e+00
1.250015139579772949e+00,-5.073249340057373047e-01,-1.886535882949829102e+00
1.575568795204162598e+00,-4.858575761318206787e-01,-1.805267453193664551e+00
-1.551787137985229492e+00,-1.729728281497955322e-01,-1.816144227981567383e+00
-1.220239520072937012e+00,-1.765422523021697998e-01,-1.918356895446777344e+00
-9.268722534179687500e-01,-1.357575654983520508e-01,-2.030840873718261719e+00
9.268729090690612793e-01,-1.357575654983520508e-01,-2.030840873718261719e+00
1.220239996910095215e+00,-1.765422523021697998e-01,-1.918356895446777344e+00
1.551787614822387695e+00,-1.729728132486343384e-01,-1.816144347190856934e+00
-1.488293528556823730e+00,1.894392818212509155e-01,-1.825408697128295898e+00
-1.250980734825134277e+00,2.003208249807357788e-01,-1.886146664619445801e+00
-8.654344081878662109e-01,1.298434734344482422e-01,-2.027331829071044922e+00
8.654351234436035156e-01,1.298434734344482422e-01,-2.027331829071044922e+00
1.250981092453002930e+00,2.003208100795745850e-01,-1.886146664619445801e+00
1.488294124603271484e+00,1.894392818212509155e-01,-1.825408697128295898e+00
-1.427721261978149414e+00,4.742482900619506836e-01,-1.826352477073669434e+00
-1.264021992683410645e+00,5.263640284538269043e-01,-1.860157608985900879e+00
-9.391442537307739258e-01,4.654401540756225586e-01,-1.916660189628601074e+00
-5.889645814895629883e-01,5.317881703376770020e-01,-1.998642563819885254e+00
-2.897791564464569092e-01,6.236623525619506836e-01,-2.042295932769775391e+00
2.897798717021942139e-01,6.236623525619506836e-01,-2.042295932769775391e+00
5.889652967453002930e-01,5.317881703376770020e-01,-1.998642563819885254e+00
9.391448497772216797e-01,4.654401540756225586e-01,-1.916660189628601074e+00
1.264022469520568848e+00,5.263640880584716797e-01,-1.860157608985900879e+00
1.427721738815307617e+00,4.742482900619506836e-01,-1.826352477073669434e+00
-1.191944837570190430e+00,7.959155440330505371e-01,-1.795284628868103027e+00
-8.779319524765014648e-01,8.596188426017761230e-01,-1.854658126831054688e+00
-5.402231216430664062e-01,9.019634127616882324e-01,-1.902090787887573242e+00
-1.619252413511276245e-01,8.574301004409790039e-01,-1.937161564826965332e+00
1.619259566068649292e-01,8.574301004409790039e-01,-1.937161564826965332e+00
5.402238368988037109e-01,9.019634127616882324e-01,-1.902090907096862793e+00
8.779327273368835449e-01,8.596187829971313477e-01,-1.854658126831054688e+00
1.191945314407348633e+00,7.959155440330505371e-01,-1.795284628868103027e+00
-7.433228492736816406e-01,1.071641445159912109e+00,-1.810327410697937012e+00
-4.863890409469604492e-01,1.127522945404052734e+00,-1.826221466064453125e+00
-1.932082623243331909e-01,1.221513390541076660e+00,-1.802606940269470215e+00
1.932089775800704956e-01,1.221513390541076660e+00,-1.802606940269470215e+00
4.863897562026977539e-01,1.127522945404052734e+00,-1.826221466064453125e+00
7.433235645294189453e-01,1.071641445159912109e+00,-1.810327410697937012e+00
-7.953263521194458008e-01,-1.847830057144165039e+00,-1.518846035003662109e+00
-5.291286110877990723e-01,-1.941397070884704590e+00,-1.480787754058837891e+00
-2.220171242952346802e-01,-1.941342949867248535e+00,-1.541542410850524902e+00
2.220178395509719849e-01,-1.941342949867248535e+00,-1.541542410850524902e+00
5.291293263435363770e-01,-1.941397070884704590e+00,-1.480787754058837891e+00
7.953270673751831055e-01,-1.847830057144165039e+00,-1.518846035003662109e+00
-1.427943587303161621e+00,-1.418424248695373535e+00,-1.494768738746643066e+00
-1.200027108192443848e+00,-1.680975794792175293e+00,-1.482736706733703613e+00
-9.292184710502624512e-01,-1.622701644897460938e+00,-1.628446340560913086e+00
-5.131914019584655762e-01,-1.620178222656250000e+00,-1.713527679443359375e+00
5.131921172142028809e-01,-1.620178222656250000e+00,-1.713527679443359375e+00
9.292190670967102051e-01,-1.622701883316040039e+00,-1.628446221351623535e+00
1.200027585029602051e+00,-1.680975794792175293e+00,-1.482736706733703613e+00
1.427944064140319824e+00,-1.418424248695373535e+00,-1.494768738746643066e+00
-1.642218708992004395e+00,-1.147508025169372559e+00,-1.506808638572692871e+00
-1.262544512748718262e+00,-1.235233902931213379e+00,-1.670366168022155762e+00
-9.903546571731567383e-01,-1.339221954345703125e+00,-1.745398044586181641e+00
9.903553724288940430e-01,-1.339221954345703125e+00,-1.745398044586181641e+00
1.262544989585876465e+00,-1.235233902931213379e+00,-1.670366168022155762e+00
1.642219185829162598e+00,-1.147508025169372559e+00,-1.506808638572692871e+00
-1.809182882308959961e+00,-8.829118013381958008e-01,-1.451233506202697754e+00
-1.644164919853210449e+00,-8.906890749931335449e-01,-1.648689150810241699e+00
1.644165396690368652e+00,-8.906891942024230957e-01,-1.648689150810241699e+00
1.809183359146118164e+00,-8.829118013381958008e-01,-1.451233506202697754e+00
-1.841486930847167969e+00,-5.710536837577819824e-01,-1.576938867568969727e+00
-1.732889652252197266e+00,-4.388756453990936279e-01,-1.723403930664062500e+00
1.732890129089355469e+00,-4.388756453990936279e-01,-1.723403930664062500e+00
1.841487407684326172e+00,-5.710536837577819824e-01,-1.576938867568969727e+00
-1.890291571617126465e+00,-2.023331075906753540e-01,-1.569108128547668457e+00
1.890292048454284668e+00,-2.023331075906753540e-01,-1.569108128547668457e+00
-1.884429454803466797e+00,1.386890411376953125e-01,-1.537788748741149902e+00
-1.674181342124938965e+00,9.419384598731994629e-02,-1.734565377235412598e+00
1.674181818962097168e+00,9.419384598731994629e-02,-1.734565615653991699e+00
1.884429931640625000e+00,1.386890411376953125e-01,-1.537788748741149902e+00
-1.864696741104125977e+00,3.846064805984497070e-01,-1.473833441734313965e+00
-1.621655702590942383e+00,4.900535941123962402e-01,-1.670441865921020508e+00
1.621656179428100586e+00,4.900536537170410156e-01,-1.670441865921020508e+00
1.864697217941284180e+00,3.846064805984497070e-01,-1.473833441734313965e+00
-1.573858857154846191e+00,8.399610519409179688e-01,-1.512668013572692871e+00
-1.260570049285888672e+00,9.455749988555908203e-01,-1.698198795318603516e+00
1.260570526123046875e+00,9.455749988555908203e-01,-1.698198795318603516e+00
1.573859572410583496e+00,8.399610519409179688e-01,-1.512668013572692871e+00
-1.181305646896362305e+00,1.236915469169616699e+00,-1.509770035743713379e+00
-8.707863092422485352e-01,1.229307413101196289e+00,-1.695292830467224121e+00
-5.153888463973999023e-01,1.321751952171325684e+00,-1.711117744445800781e+00
5.153895020484924316e-01,1.321751952171325684e+00,-1.711117744445800781e+00
8.707869648933410645e-01,1.229307413101196289e+00,-1.695292830467224121e+00
1.181306123733520508e+00,1.236915588378906250e+00,-1.509769916534423828e+00
-8.348836302757263184e-01,1.485594630241394043e+00,-1.496413588523864746e+00
-4.891498982906341553e-01,1.538806319236755371e+00,-1.528320670127868652e+00
-1.538182795047760010e-01,1.588720083236694336e+00,-1.544296503067016602e+00
1.538189947605133057e-01,1.588720083236694336e+00,-1.544296503067016602e+00
4.891505539417266846e-01,1.538806080818176270e+00,-1.528320670127868652e+00
8.348843455314636230e-01,1.485594630241394043e+00,-1.496413588523864746e+00
-7.750099897384643555e-01,-2.121103525161743164e+00,-1.136802196502685547e+00
-4.724532365798950195e-01,-2.178999900817871094e+00,-1.181845188140869141e+00
-1.307177245616912842e-01,-2.216762542724609375e+00,-1.187613248825073242e+00
1.307184398174285889e-01,-2.216762542724609375e+00,-1.187613248825073242e+00
4.724539518356323242e-01,-2.178999900817871094e+00,-1.181845188140869141e+00
7.750107049942016602e-01,-2.121103525161743164e+00,-1.136802196502685547e+00
-1.196491837501525879e+00,-1.860453248023986816e+00,-1.236787199974060059e+00
-9.315237998962402344e-01,-2.020131826400756836e+00,-1.248165845870971680e+00
-6.050269007682800293e-01,-2.083810567855834961e+00,-1.292728900909423828e+00
6.050276160240173340e-01,-2.083810567855834961e+00,-1.292728900909423828e+00
9.315245151519775391e-01,-2.020131587982177734e+00,-1.248165845870971680e+00
1.196492314338684082e+00,-1.860453248023986816e+00,-1.236787199974060059e+00
-1.586187005043029785e+00,-1.553450584411621094e+00,-1.159402132034301758e+00
-1.389630436897277832e+00,-1.628547906875610352e+00,-1.329310178756713867e+00
1.389630913734436035e+00,-1.628547906875610352e+00,-1.329310178756713867e+00
1.586187481880187988e+00,-1.553450584411621094e+00,-1.159402132034301758e+00
-1.895447492599487305e+00,-1.122867465019226074e+00,-1.170024871826171875e+00
-1.701082587242126465e+00,-1.319454312324523926e+00,-1.267456650733947754e+00
1.701083183288574219e+00,-1.319454312324523926e+00,-1.267456650733947754e+00
1.895447969436645508e+00,-1.122867584228515625e+00,-1.170024871826171875e+00
-2.113820314407348633e+00,-8.277475237846374512e-01,-1.082296848297119141e+00
-1.937462091445922852e+00,-9.265176653861999512e-01,-1.240659713745117188e+00
1.937462568283081055e+00,-9.265176653861999512e-01,-1.240659713745117188e+00
2.113820791244506836e+00,-8.277475237846374512e-01,-1.082296848297119141e+00
-2.203516483306884766e+00,-5.062401890754699707e-01,-1.094638466835021973e+00
-1.995632648468017578e+00,-5.891675353050231934e-01,-1.346193075180053711e+00
1.995633125305175781e+00,-5.891675353050231934e-01,-1.346192955970764160e+00
2.203516960144042969e+00,-5.062401890754699707e-01,-1.094638466835021973e+00
-2.169152736663818359e+00,-2.180673182010650635e-01,-1.180186152458190918e+00
-2.043594121932983398e+00,-2.306739613413810730e-02,-1.368461370468139648e+00
2.043594598770141602e+00,-2.306739613413810730e-02,-1.368461370468139648e+00
2.169153213500976562e+00,-2.180673331022262573e-01,-1.180186152458190918e+00
-2.132859945297241211e+00,1.757754087448120117e-01,-1.157068133354187012e+00
-2.014042377471923828e+00,3.123589754104614258e-01,-1.308935880661010742e+00
2.014042854309082031e+00,3.123589754104614258e-01,-1.308935880661010742e+00
2.132860422134399414e+00,1.757754087448120117e-01,-1.157068133354187012e+00
-1.965728163719177246e+00,5.558727979660034180e-01,-1.202069520950317383e+00
1.965728640556335449e+00,5.558727979660034180e-01,-1.202069520950317383e+00
-1.835971832275390625e+00,8.385493755340576172e-01,-1.169222235679626465e+00
-1.695077180862426758e+00,8.790320158004760742e-01,-1.362416625022888184e+00
1.695077657699584961e+00,8.790320158004760742e-01,-1.362416625022888184e+00
1.835972189903259277e+00,8.385493755340576172e-01,-1.169222235679626465e+00
-1.504435181617736816e+00,1.221875786781311035e+00,-1.179972529411315918e+00
-1.319101572036743164e+00,1.308120489120483398e+00,-1.284065961837768555e+00
1.319102048873901367e+00,1.308120489120483398e+00,-1.284065961837768555e+00
1.504435658454895020e+00,1.221875786781311035e+00,-1.179972529411315918e+00
-1.163400650024414062e+00,1.523906946182250977e+00,-1.230725884437561035e+00
-8.933486938476562500e-01,1.658437967300415039e+00,-1.251407027244567871e+00
-6.518838405609130859e-01,1.653439521789550781e+00,-1.377123355865478516e+00
-6.299555301666259766e-03,1.723688840866088867e+00,-1.346844792366027832e+00
6.300270557403564453e-03,1.723688840866088867e+00,-1.346844792366027832e+00
6.518845558166503906e-01,1.653439521789550781e+00,-1.377123355865478516e+00
8.933492898941040039e-01,1.658437967300415039e+00,-1.251407027244567871e+00
1.163401126861572266e+00,1.523906946182250977e+00,-1.230725884437561035e+00
-7.711334228515625000e-01,1.809250116348266602e+00,-1.067073464393615723e+00
-4.736253619194030762e-01,1.804409027099609375e+00,-1.197986841201782227e+00
-1.672433316707611084e-01,1.840240716934204102e+00,-1.169660210609436035e+00
1.672440469264984131e-01,1.840240716934204102e+00,-1.169660210609436035e+00
4.736261367797851562e-01,1.804408788681030273e+00,-1.197986721992492676e+00
7.711341381072998047e-01,1.809250116348266602e+00,-1.067073464393615723e+00
-9.070038199424743652e-01,-2.208808660507202148e+00,-8.402637243270874023e-01
-5.141040682792663574e-01,-2.295315027236938477e+00,-9.405764341354370117e-01
-1.886446326971054077e-01,-2.397021532058715820e+00,-7.931147813796997070e-01
1.886453628540039062e-01,-2.397021532058715820e+00,-7.931147813796997070e-01
5.141047835350036621e-01,-2.295314788818359375e+00,-9.405764937400817871e-01
9.070045351982116699e-01,-2.208808660507202148e+00,-8.402637243270874023e-01
-1.460058689117431641e+00,-1.832871437072753906e+00,-9.468833804130554199e-01
-1.257763743400573730e+00,-1.993731617927551270e+00,-8.819776177406311035e-01
-1.015684366226196289e+00,-2.075677394866943359e+00,-1.036061286926269531e+00
1.015684843063354492e+00,-2.075677394866943359e+00,-1.036061286926269531e+00
1.257764220237731934e+00,-1.993731617927551270e+00,-8.819776177406311035e-01
1.460059165954589844e+00,-1.832871437072753906e+00,-9.468833804130554199e-01
-1.822328209877014160e+00,-1.535782814025878906e+00,-7.938756346702575684e-01
-1.649934768676757812e+00,-1.689626097679138184e+00,-8.894505500793457031e-01
1.649935245513916016e+00,-1.689626097679138184e+00,-8.894505500793457031e-01
1.822328686714172363e+00,-1.535782694816589355e+00,-7.938756346702575684e-01
-1.986727595329284668e+00,-1.250512361526489258e+00,-8.698133826255798340e-01
1.986728310585021973e+00,-1.250512361526489258e+00,-8.698133826255798340e-01
-2.175651550292968750e+00,-8.912861943244934082e-01,-8.480405211448669434e-01
2.175652027130126953e+00,-8.912861943244934082e-01,-8.480405211448669434e-01
-2.248959779739379883e+00,-5.619959831237792969e-01,-9.380996227264404297e-01
2.248960256576538086e+00,-5.619959831237792969e-01,-9.380996227264404297e-01
-2.285633087158203125e+00,-1.769421547651290894e-01,-9.221017360687255859e-01
2.285633563995361328e+00,-1.769421547651290894e-01,-9.221017360687255859e-01
-2.256986379623413086e+00,1.903437376022338867e-01,-8.416996002197265625e-01
2.256986856460571289e+00,1.903437376022338867e-01,-8.416996002197265625e-01
-2.172991514205932617e+00,4.267918467521667480e-01,-8.459472060203552246e-01
-2.089251995086669922e+00,6.246802806854248047e-01,-8.491561412811279297e-01
2.089252471923828125e+00,6.246802806854248047e-01,-8.491561412811279297e-01
2.172991991043090820e+00,4.267918467521667480e-01,-8.459471464157104492e-01
-1.967977166175842285e+00,8.547292947769165039e-01,-8.451342582702636719e-01
1.967977762222290039e+00,8.547293543815612793e-01,-8.451342582702636719e-01
-1.806747198104858398e+00,1.111400842666625977e+00,-8.980379104614257812e-01
-1.663144946098327637e+00,1.291804790496826172e+00,-9.219414591789245605e-01
1.663145422935485840e+00,1.291804790496826172e+00,-9.219414591789245605e-01
1.806747674942016602e+00,1.111400842666625977e+00,-8.980379104614257812e-01
-1.504048347473144531e+00,1.503887772560119629e+00,-8.394848704338073730e-01
-1.269678115844726562e+00,1.627844691276550293e+00,-9.497194290161132812e-01
1.269678711891174316e+00,1.627844572067260742e+00,-9.497194290161132812e-01
1.504048824310302734e+00,1.503887772560119629e+00,-8.394848704338073730e-01
-1.126709818840026855e+00,1.794004797935485840e+00,-8.066384196281433105e-01
-9.019814729690551758e-01,1.851588606834411621e+00,-8.846967816352844238e-01
-5.294135808944702148e-01,1.979028820991516113e+00,-8.483979105949401855e-01
-1.751720905303955078e-01,2.033922672271728516e+00,-8.885526061058044434e-01
1.751728057861328125e-01,2.033922672271728516e+00,-8.885525465011596680e-01
5.294142961502075195e-01,1.979028820991516113e+00,-8.483979105949401855e-01
9.019821286201477051e-01,1.851588606834411621e+00,-8.846966624259948730e-01
1.126710295677185059e+00,1.794004797935485840e+00,-8.066384196281433105e-01
-1.793550699949264526e-01,2.113010406494140625e+00,-7.155531048774719238e-01
1.793557852506637573e-01,2.113010406494140625e+00,-7.155531048774719238e-01
-3.641901016235351562e-01,-2.487831592559814453e+00,-3.593765497207641602e-01
-1.475887596607208252e-01,-2.474904775619506836e+00,-5.165896415710449219e-01
1.475894749164581299e-01,-2.474904775619506836e+00,-5.165896415710449219e-01
3.641908168792724609e-01,-2.487831592559814453e+00,-3.593765497207641602e-01
-1.213479399681091309e+00,-2.148440599441528320e+00,-4.704358279705047607e-01
-9.499395489692687988e-01,-2.277581930160522461e+00,-5.198007225990295410e-01
-5.502126216888427734e-01,-2.421468496322631836e+00,-5.122614502906799316e-01
5.502133369445800781e-01,-2.421468496322631836e+00,-5.122614502906799316e-01
9.499401450157165527e-01,-2.277581930160522461e+00,-5.198007225990295410e-01
1.213479876518249512e+00,-2.148440837860107422e+00,-4.704358577728271484e-01
-1.624251365661621094e+00,-1.864965796470642090e+00,-5.048490166664123535e-01
-1.314541697502136230e+00,-2.073978185653686523e+00,-5.546898841857910156e-01
1.314542174339294434e+00,-2.073978185653686523e+00,-5.546898841857910156e-01
1.624251842498779297e+00,-1.864965796470642090e+00,-5.048490166664123535e-01
-1.924539446830749512e+00,-1.501615881919860840e+00,-4.772255420684814453e-01
1.924539923667907715e+00,-1.501615881919860840e+00,-4.772255420684814453e-01
-2.149452924728393555e+00,-1.136544823646545410e+00,-5.452354550361633301e-01
-2.039086341857910156e+00,-1.323479652404785156e+00,-5.085221529006958008e-01
2.039087057113647461e+00,-1.323479652404785156e+00,-5.085220932960510254e-01
2.149453163146972656e+00,-1.136544823646545410e+00,-5.452354550361633301e-01
-2.255161762237548828e+00,-8.808127045631408691e-01,-5.514199733734130859e-01
2.255162239074707031e+00,-8.808127045631408691e-01,-5.514199137687683105e-01
-2.359541416168212891e+00,-4.963654875755310059e-01,-5.321565270423889160e-01
2.359541893005371094e+00,-4.963654875755310059e-01,-5.321565270423889160e-01
-2.379030704498291016e+00,-1.614691913127899170e-01,-4.962454140186309814e-01
2.379031181335449219e+00,-1.614691913127899170e-01,-4.962454140186309814e-01
-2.329162597656250000e+00,2.039886415004730225e-01,-5.229139328002929688e-01
2.329163312911987305e+00,2.039886415004730225e-01,-5.229139328002929688e-01
-2.246875047683715820e+00,4.892598986625671387e-01,-5.513142347335815430e-01
2.246875286102294922e+00,4.892598986625671387e-01,-5.513142347335815430e-01
-2.155727386474609375e+00,7.868865132331848145e-01,-4.635313153266906738e-01
-2.006794691085815430e+00,9.988794326782226562e-01,-5.286483764648437500e-01
2.006795167922973633e+00,9.988794326782226562e-01,-5.286483764648437500e-01
2.155727863311767578e+00,7.868865132331848145e-01,-4.635313153266906738e-01
-1.825954198837280273e+00,1.249987125396728516e+00,-5.516653060913085938e-01
-1.669942855834960938e+00,1.388415575027465820e+00,-6.888568997383117676e-01
1.669943332672119141e+00,1.388415575027465820e+00,-6.888568997383117676e-01
1.825954675674438477e+00,1.249987125396728516e+00,-5.516653060913085938e-01
-1.515840888023376465e+00,1.597952961921691895e+00,-4.455382823944091797e-01
-1.358709931373596191e+00,1.715867877006530762e+00,-5.582931637763977051e-01
1.358710289001464844e+00,1.715867638587951660e+00,-5.582931637763977051e-01
1.515841364860534668e+00,1.597952842712402344e+00,-4.455382823944091797e-01
-1.190461993217468262e+00,1.847553253173828125e+00,-5.207504034042358398e-01
-8.997087478637695312e-01,1.984052896499633789e+00,-5.466024875640869141e-01
-6.378901600837707520e-01,2.066005229949951172e+00,-5.403375625610351562e-01
6.378908753395080566e-01,2.066005229949951172e+00,-5.403375625610351562e-01
8.997095227241516113e-01,1.984052896499633789e+00,-5.466024875640869141e-01
1.190462470054626465e+00,1.847553253173828125e+00,-5.207504034042358398e-01
-3.953002989292144775e-01,2.125389099121093750e+00,-5.284698605537414551e-01
-1.881480216979980469e-01,2.171437501907348633e+00,-4.522050321102142334e-01
1.881487369537353516e-01,2.171437740325927734e+00,-4.522050321102142334e-01
3.953009843826293945e-01,2.125389099121093750e+00,-5.284698605537414551e-01
-5.368485450744628906e-01,-2.490698575973510742e+00,-1.674675345420837402e-01
-1.755032837390899658e-01,-2.542504549026489258e+00,-1.969807296991348267e-01
1.755039989948272705e-01,-2.542504549026489258e+00,-1.969807296991348267e-01
5.368492603302001953e-01,-2.490698575973510742e+00,-1.674675345420837402e-01
-1.229491233825683594e+00,-2.196351289749145508e+00,-1.390594840049743652e-01
-8.173640370368957520e-01,-2.377697229385375977e+00,-2.342123240232467651e-01
8.173647522926330566e-01,-2.377697229385375977e+00,-2.342123240232467651e-01
1.229491710662841797e+00,-2.196351289749145508e+00,-1.390594840049743652e-01
-1.638488292694091797e+00,-1.903075814247131348e+00,-1.608666777610778809e-01
1.638488769531250000e+00,-1.903075814247131348e+00,-1.608666777610778809e-01
-1.940237402915954590e+00,-1.582813739776611328e+00,-1.923866719007492065e-01
1.940237760543823242e+00,-1.582813739776611328e+00,-1.923866719007492065e-01
-2.216082096099853516e+00,-1.185674667358398438e+00,-1.713680624961853027e-01
2.216082572937011719e+00,-1.185674667358398438e+00,-1.713680624961853027e-01
-2.330322265625000000e+00,-8.643475174903869629e-01,-2.129818946123123169e-01
2.330322980880737305e+00,-8.643475174903869629e-01,-2.129818797111511230e-01
-2.419414520263671875e+00,-5.345682501792907715e-01,-1.690536290407180786e-01
2.419414997100830078e+00,-5.345682501792907715e-01,-1.690536290407180786e-01
-2.437576770782470703e+00,-2.799658179283142090e-01,-2.360130250453948975e-01
2.437577247619628906e+00,-2.799658179283142090e-01,-2.360130250453948975e-01
-2.412921428680419922e+00,1.198921725153923035e-01,-1.883731782436370850e-01
2.412921905517578125e+00,1.198921725153923035e-01,-1.883731782436370850e-01
-2.298931837081909180e+00,5.234157443046569824e-01,-2.226165384054183960e-01
2.298932313919067383e+00,5.234157443046569824e-01,-2.226165533065795898e-01
-2.199394702911376953e+00,8.021289110183715820e-01,-1.716353744268417358e-01
2.199395179748535156e+00,8.021289110183715820e-01,-1.716353744268417358e-01
-1.924730181694030762e+00,1.231828927993774414e+00,-2.129697054624557495e-01
1.924730539321899414e+00,1.231828927993774414e+00,-2.129697054624557495e-01
-1.770375132560729980e+00,1.422216773033142090e+00,-1.565402746200561523e-01
-1.567040443420410156e+00,1.588626861572265625e+00,-1.985803842544555664e-01
1.567041039466857910e+00,1.588626861572265625e+00,-1.985803842544555664e-01
1.770375609397888184e+00,1.422216773033142090e+00,-1.565402746200561523e-01
-1.208251118659973145e+00,1.862114191055297852e+00,-1.786686629056930542e-01
-8.716995120048522949e-01,2.038152694702148438e+00,-1.713086366653442383e-01
8.717002272605895996e-01,2.038152694702148438e+00,-1.713086366653442383e-01
1.208251476287841797e+00,1.862114191055297852e+00,-1.786686629056930542e-01
-5.028553009033203125e-01,2.156771898269653320e+00,-2.160178422927856445e-01
-1.677298545837402344e-01,2.201603412628173828e+00,-1.996200084686279297e-01
1.677305698394775391e-01,2.201603412628173828e+00,-1.996200084686279297e-01
5.028560757637023926e-01,2.156771898269653320e+00,-2.160178422927856445e-01
-5.368485450744628906e-01,-2.490698575973510742e+00,1.674665808677673340e-01
-1.755032837390899658e-01,-2.542504549026489258e+00,1.969797760248184204e-01
1.755039840936660767e-01,-2.542504549026489258e+00,1.969797760248184204e-01
5.368492603302001953e-01,-2.490698575973510742e+00,1.674665808677673340e-01
-1.229491233825683594e+00,-2.196351289749145508e+00,1.390585303306579590e-01
-8.173640370368957520e-01,-2.377697229385375977e+00,2.342113703489303589e-01
8.173647522926330566e-01,-2.377697229385375977e+00,2.342113703489303589e-01
1.229491710662841797e+00,-2.196351289749145508e+00,1.390585303306579590e-01
-1.638488292694091797e+00,-1.903075814247131348e+00,1.608657240867614746e-01
1.638488769531250000e+00,-1.903075814247131348e+00,1.608657091856002808e-01
-1.940237283706665039e+00,-1.582813739776611328e+00,1.923857182264328003e-01
1.940237879753112793e+00,-1.582813739776611328e+00,1.923857331275939941e-01
-2.216082096099853516e+00,-1.185674667358398438e+00,1.713671088218688965e-01
2.216082572937011719e+00,-1.185674667358398438e+00,1.713671088218688965e-01
-2.330322265625000000e+00,-8.643475174903869629e-01,2.129809409379959106e-01
2.330322980880737305e+00,-8.643475174903869629e-01,2.129809260368347168e-01
-2.419414520263671875e+00,-5.345682501792907715e-01,1.690526753664016724e-01
2.419415235519409180e+00,-5.345683097839355469e-01,1.690526753664016724e-01
-2.437576770782470703e+00,-2.799658179283142090e-01,2.360120713710784912e-01
2.437577247619628906e+00,-2.799658179283142090e-01,2.360120713710784912e-01
-2.412921428680419922e+00,1.198921725153923035e-01,1.883722245693206787e-01
2.412921905517578125e+00,1.198921725153923035e-01,1.883722245693206787e-01
-2.298931837081909180e+00,5.234157443046569824e-01,2.226155847311019897e-01
2.298932313919067383e+00,5.234157443046569824e-01,2.226155847311019897e-01
-2.199394702911376953e+00,8.021289110183715820e-01,1.716344207525253296e-01
2.199395179748535156e+00,8.021289110183715820e-01,1.716344207525253296e-01
-1.924730300903320312e+00,1.231828927993774414e+00,2.129687517881393433e-01
1.924730658531188965e+00,1.231828927993774414e+00,2.129687368869781494e-01
-1.770375132560729980e+00,1.422216773033142090e+00,1.565393209457397461e-01
-1.567040443420410156e+00,1.588626861572265625e+00,1.985794305801391602e-01
1.567040920257568359e+00,1.588626861572265625e+00,1.985794305801391602e-01
1.770375609397888184e+00,1.422216773033142090e+00,1.565393209457397461e-01
-1.208250880241394043e+00,1.862114191055297852e+00,1.786676943302154541e-01
-8.716995120048522949e-01,2.038152694702148438e+00,1.713076829910278320e-01
8.717001676559448242e-01,2.038152694702148438e+00,1.713076829910278320e-01
1.208251476287841797e+00,1.862114429473876953e+00,1.786677092313766479e-01
-5.028553009033203125e-01,2.156771659851074219e+00,2.160168439149856567e-01
-1.677298545837402344e-01,2.201603174209594727e+00,1.996190547943115234e-01
1.677305698394775391e-01,2.201603412628173828e+00,1.996190547943115234e-01
5.028560161590576172e-01,2.156771898269653320e+00,2.160168737173080444e-01
-3.641901016235351562e-01,-2.487831592559814453e+00,3.593755960464477539e-01
-1.475887596607208252e-01,-2.474904775619506836e+00,5.165886878967285156e-01
1.475894600152969360e-01,-2.474904775619506836e+00,5.165886878967285156e-01
3.641908168792724609e-01,-2.487831592559814453e+00,3.593755960464477539e-01
-1.213479399681091309e+00,-2.148440837860107422e+00,4.704349040985107422e-01
-9.499395489692687988e-01,-2.277581930160522461e+00,5.197997689247131348e-01
-5.502126216888427734e-01,-2.421468496322631836e+00,5.122604966163635254e-01
5.502133369445800781e-01,-2.421468496322631836e+00,5.122604966163635254e-01
9.499401450157165527e-01,-2.277581930160522461e+00,5.197997689247131348e-01
1.213479876518249512e+00,-2.148441076278686523e+00,4.704349040985107422e-01
-1.624251365661621094e+00,-1.864965796470642090e+00,5.048480629920959473e-01
-1.314541697502136230e+00,-2.073978185653686523e+00,5.546889305114746094e-01
1.314542174339294434e+00,-2.073978185653686523e+00,5.546889305114746094e-01
1.624251842498779297e+00,-1.864965796470642090e+00,5.048480629920959473e-01
-1.924539446830749512e+00,-1.501615881919860840e+00,4.772245883941650391e-01
1.924539923667907715e+00,-1.501615881919860840e+00,4.772245883941650391e-01
-2.149452924728393555e+00,-1.136544942855834961e+00,5.452345013618469238e-01
-2.039086341857910156e+00,-1.323479652404785156e+00,5.085211992263793945e-01
2.039087057113647461e+00,-1.323479652404785156e+00,5.085211396217346191e-01
2.149453163146972656e+00,-1.136544823646545410e+00,5.452345013618469238e-01
-2.255161762237548828e+00,-8.808127045631408691e-01,5.514190196990966797e-01
2.255162239074707031e+00,-8.808127045631408691e-01,5.514189600944519043e-01
-2.359541416168212891e+00,-4.963654875755310059e-01,5.321555733680725098e-01
2.359541893005371094e+00,-4.963654875755310059e-01,5.321555733680725098e-01
-2.379030704498291016e+00,-1.614691913127899170e-01,4.962444603443145752e-01
2.379031181335449219e+00,-1.614691913127899170e-01,4.962444603443145752e-01
-2.329162597656250000e+00,2.039886265993118286e-01,5.229129791259765625e-01
2.329163074493408203e+00,2.039886265993118286e-01,5.229129791259765625e-01
-2.246875047683715820e+00,4.892598986625671387e-01,5.513132214546203613e-01
2.246875286102294922e+00,4.892598986625671387e-01,5.513132214546203613e-01
-2.155727386474609375e+00,7.868865132331848145e-01,4.635303616523742676e-01
-2.006794691085815430e+00,9.988794922828674316e-01,5.286474227905273438e-01
2.006795167922973633e+00,9.988794922828674316e-01,5.286474227905273438e-01
2.155727863311767578e+00,7.868865132331848145e-01,4.635303616523742676e-01
-1.825954318046569824e+00,1.249987244606018066e+00,5.516643524169921875e-01
-1.669942855834960938e+00,1.388415575027465820e+00,6.888559460639953613e-01
1.669943332672119141e+00,1.388415575027465820e+00,6.888559460639953613e-01
1.825954675674438477e+00,1.249987244606018066e+00,5.516643524169921875e-01
-1.515841007232666016e+00,1.597952842712402344e+00,4.455373287200927734e-01
-1.358709931373596191e+00,1.715867877006530762e+00,5.582922101020812988e-01
1.358710289001464844e+00,1.715867877006530762e+00,5.582922101020812988e-01
1.515841484069824219e+00,1.597952961921691895e+00,4.455373287200927734e-01
-1.190462112426757812e+00,1.847553253173828125e+00,5.207494497299194336e-01
-8.997087478637695312e-01,1.984052896499633789e+00,5.466015934944152832e-01
-6.378901600837707520e-01,2.066005229949951172e+00,5.403366088867187500e-01
6.378908753395080566e-01,2.066005229949951172e+00,5.403365492820739746e-01
8.997094035148620605e-01,1.984052896499633789e+00,5.466015338897705078e-01
1.190462589263916016e+00,1.847553253173828125e+00,5.207494497299194336e-01
-3.953002989292144775e-01,2.125389099121093750e+00,5.284689068794250488e-01
-1.881480216979980469e-01,2.171437740325927734e+00,4.522040784358978271e-01
1.881487369537353516e-01,2.171437740325927734e+00,4.522040784358978271e-01
3.953009843826293945e-01,2.125389099121093750e+00,5.284689068794250488e-01
-9.070038199424743652e-01,-2.208808660507202148e+00,8.402628302574157715e-01
-5.141040682792663574e-01,-2.295315027236938477e+00,9.405754804611206055e-01
-1.886446475982666016e-01,-2.397021532058715820e+00,7.931138277053833008e-01
1.886453479528427124e-01,-2.397021770477294922e+00,7.931138277053833008e-01
5.141047835350036621e-01,-2.295315027236938477e+00,9.405754804611206055e-01
9.070044755935668945e-01,-2.208808660507202148e+00,8.402627706527709961e-01
-1.460058689117431641e+00,-1.832871437072753906e+00,9.468824267387390137e-01
-1.257763743400573730e+00,-1.993731617927551270e+00,8.819766640663146973e-01
-1.015684366226196289e+00,-2.075677394866943359e+00,1.036060333251953125e+00
1.015684843063354492e+00,-2.075677394866943359e+00,1.036060333251953125e+00
1.257764220237731934e+00,-1.993731617927551270e+00,8.819766640663146973e-01
1.460059165954589844e+00,-1.832871437072753906e+00,9.468824267387390137e-01
-1.822328209877014160e+00,-1.535782694816589355e+00,7.938746809959411621e-01
-1.649934768676757812e+00,-1.689626097679138184e+00,8.894495964050292969e-01
1.649935245513916016e+00,-1.689626097679138184e+00,8.894495964050292969e-01
1.822328567504882812e+00,-1.535782814025878906e+00,7.938745617866516113e-01
-1.986727595329284668e+00,-1.250512361526489258e+00,8.698124289512634277e-01
1.986728310585021973e+00,-1.250512361526489258e+00,8.698124885559082031e-01
-2.175651550292968750e+00,-8.912861943244934082e-01,8.480395674705505371e-01
2.175652027130126953e+00,-8.912861943244934082e-01,8.480395674705505371e-01
-2.248959779739379883e+00,-5.619959831237792969e-01,9.380986094474792480e-01
2.248960256576538086e+00,-5.619959831237792969e-01,9.380986690521240234e-01
-2.285632848739624023e+00,-1.769421547651290894e-01,9.221007823944091797e-01
2.285633325576782227e+00,-1.769421547651290894e-01,9.221007823944091797e-01
-2.256986379623413086e+00,1.903437376022338867e-01,8.416986465454101562e-01
2.256986856460571289e+00,1.903437376022338867e-01,8.416986465454101562e-01
-2.172991514205932617e+00,4.267918169498443604e-01,8.459462523460388184e-01
-2.089251995086669922e+00,6.246802806854248047e-01,8.491551876068115234e-01
2.089252471923828125e+00,6.246802806854248047e-01,8.491551876068115234e-01
2.172991991043090820e+00,4.267918169498443604e-01,8.459461927413940430e-01
-1.967977166175842285e+00,8.547293543815612793e-01,8.451333045959472656e-01
1.967977523803710938e+00,8.547292947769165039e-01,8.451333045959472656e-01
-1.806747198104858398e+00,1.111400842666625977e+00,8.980369567871093750e-01
-1.663144946098327637e+00,1.291804790496826172e+00,9.219405055046081543e-01
1.663145422935485840e+00,1.291804790496826172e+00,9.219405055046081543e-01
1.806747674942016602e+00,1.111400842666625977e+00,8.980369567871093750e-01
-1.504048347473144531e+00,1.503887772560119629e+00,8.394839167594909668e-01
-1.269678115844726562e+00,1.627844691276550293e+00,9.497185349464416504e-01
1.269678711891174316e+00,1.627844691276550293e+00,9.497185349464416504e-01
1.504048824310302734e+00,1.503887772560119629e+00,8.394839167594909668e-01
-1.126709818840026855e+00,1.794004797935485840e+00,8.066374659538269043e-01
-9.019814729690551758e-01,1.851588487625122070e+00,8.846958279609680176e-01
-5.294135808944702148e-01,1.979029059410095215e+00,8.483970165252685547e-01
-1.751720905303955078e-01,2.033922672271728516e+00,8.885515928268432617e-01
1.751728057861328125e-01,2.033922672271728516e+00,8.885515928268432617e-01
5.294142961502075195e-01,1.979029059410095215e+00,8.483969569206237793e-01
9.019821286201477051e-01,1.851588606834411621e+00,8.846957087516784668e-01
1.126710295677185059e+00,1.794004797935485840e+00,8.066374659538269043e-01
-1.793550699949264526e-01,2.113010406494140625e+00,7.155521512031555176e-01
1.793557852506637573e-01,2.113010406494140625e+00,7.155521512031555176e-01
-7.750099897384643555e-01,-2.121103525161743164e+00,1.136801242828369141e+00
-4.724532365798950195e-01,-2.178999900817871094e+00,1.181844234466552734e+00
-1.307177245616912842e-01,-2.216762542724609375e+00,1.187612295150756836e+00
1.307184398174285889e-01,-2.216762542724609375e+00,1.187612295150756836e+00
4.724539518356323242e-01,-2.178999900817871094e+00,1.181844234466552734e+00
7.750107049942016602e-01,-2.121103525161743164e+00,1.136801242828369141e+00
-1.196491837501525879e+00,-1.860453248023986816e+00,1.236786246299743652e+00
-9.315237998962402344e-01,-2.020131826400756836e+00,1.248164892196655273e+00
-6.050269007682800293e-01,-2.083810567855834961e+00,1.292727947235107422e+00
6.050276160240173340e-01,-2.083810567855834961e+00,1.292727947235107422e+00
9.315245151519775391e-01,-2.020131587982177734e+00,1.248164892196655273e+00
1.196492314338684082e+00,-1.860453248023986816e+00,1.236786365509033203e+00
-1.586187005043029785e+00,-1.553450584411621094e+00,1.159401178359985352e+00
-1.389630436897277832e+00,-1.628547906875610352e+00,1.329309225082397461e+00
1.389630913734436035e+00,-1.628547906875610352e+00,1.329309225082397461e+00
1.586187481880187988e+00,-1.553450584411621094e+00,1.159401178359985352e+00
-1.895447492599487305e+00,-1.122867584228515625e+00,1.170024037361145020e+00
-1.701082587242126465e+00,-1.319454312324523926e+00,1.267455697059631348e+00
1.701083064079284668e+00,-1.319454312324523926e+00,1.267455697059631348e+00
1.895447969436645508e+00,-1.122867465019226074e+00,1.170024037361145020e+00
-2.113820314407348633e+00,-8.277475237846374512e-01,1.082295894622802734e+00
-1.937462091445922852e+00,-9.265176653861999512e-01,1.240658998489379883e+00
1.937462568283081055e+00,-9.265176653861999512e-01,1.240658998489379883e+00
2.113820791244506836e+00,-8.277475237846374512e-01,1.082295894622802734e+00
-2.203516483306884766e+00,-5.062401890754699707e-01,1.094637513160705566e+00
-1.995632648468017578e+00,-5.891675353050231934e-01,1.346192002296447754e+00
1.995633125305175781e+00,-5.891675353050231934e-01,1.346192121505737305e+00
2.203516960144042969e+00,-5.062401890754699707e-01,1.094637513160705566e+00
-2.169152975082397461e+00,-2.180673331022262573e-01,1.180185198783874512e+00
-2.043594121932983398e+00,-2.306739613413810730e-02,1.368460416793823242e+00
2.043594598770141602e+00,-2.306739613413810730e-02,1.368460416793823242e+00
2.169153213500976562e+00,-2.180673331022262573e-01,1.180185198783874512e+00
-2.132859945297241211e+00,1.757754087448120117e-01,1.157067179679870605e+00
-2.014042377471923828e+00,3.123589754104614258e-01,1.308934926986694336e+00
2.014042854309082031e+00,3.123589754104614258e-01,1.308934926986694336e+00
2.132860422134399414e+00,1.757754087448120117e-01,1.157067179679870605e+00
-1.965728163719177246e+00,5.558727979660034180e-01,1.202068567276000977e+00
1.965728640556335449e+00,5.558727979660034180e-01,1.202068567276000977e+00
-1.835971832275390625e+00,8.385493755340576172e-01,1.169221282005310059e+00
-1.695077180862426758e+00,8.790320158004760742e-01,1.362415671348571777e+00
1.695077657699584961e+00,8.790320158004760742e-01,1.362415671348571777e+00
1.835972189903259277e+00,8.385494351387023926e-01,1.169221282005310059e+00
-1.504435181617736816e+00,1.221875786781311035e+00,1.179971694946289062e+00
-1.319101572036743164e+00,1.308120489120483398e+00,1.284065008163452148e+00
1.319102048873901367e+00,1.308120489120483398e+00,1.284065008163452148e+00
1.504435658454895020e+00,1.221875786781311035e+00,1.179971575736999512e+00
-1.163400650024414062e+00,1.523906946182250977e+00,1.230724930763244629e+00
-8.933486938476562500e-01,1.658438086509704590e+00,1.251406073570251465e+00
-6.518838405609130859e-01,1.653439521789550781e+00,1.377122402191162109e+00
-6.299555301666259766e-03,1.723688840866088867e+00,1.346843838691711426e+00
6.300270557403564453e-03,1.723688840866088867e+00,1.346843838691711426e+00
6.518845558166503906e-01,1.653439521789550781e+00,1.377122402191162109e+00
8.933493494987487793e-01,1.658437967300415039e+00,1.251406073570251465e+00
1.163401126861572266e+00,1.523906946182250977e+00,1.230724930763244629e+00
-7.711334228515625000e-01,1.809250116348266602e+00,1.067072510719299316e+00
-4.736253619194030762e-01,1.804408788681030273e+00,1.197985768318176270e+00
-1.672433316707611084e-01,1.840240716934204102e+00,1.169659256935119629e+00
1.672440469264984131e-01,1.840240716934204102e+00,1.169659256935119629e+00
4.736260771751403809e-01,1.804409027099609375e+00,1.197985768318176270e+00
7.711341381072998047e-01,1.809250116348266602e+00,1.067072510719299316e+00
-7.953263521194458008e-01,-1.847830057144165039e+00,1.518845081329345703e+00
-5.291286110877990723e-01,-1.941397070884704590e+00,1.480786800384521484e+00
-2.220171242952346802e-01,-1.941342949867248535e+00,1.541541457176208496e+00
2.220178395509719849e-01,-1.941342949867248535e+00,1.541541457176208496e+00
5.291292667388916016e-01,-1.941397070884704590e+00,1.480786800384521484e+00
7.953270673751831055e-01,-1.847830057144165039e+00,1.518845081329345703e+00
-1.427943587303161621e+00,-1.418424248695373535e+00,1.494767785072326660e+00
-1.200027108192443848e+00,-1.680975794792175293e+00,1.482735753059387207e+00
-9.292184710502624512e-01,-1.622701883316040039e+00,1.628445267677307129e+00
-5.131914019584655762e-01,-1.620178222656250000e+00,1.713526725769042969e+00
5.131921172142028809e-01,-1.620178222656250000e+00,1.713526725769042969e+00
9.292190670967102051e-01,-1.622701883316040039e+00,1.628445267677307129e+00
1.200027585029602051e+00,-1.680975794792175293e+00,1.482735753059387207e+00
1.427944064140319824e+00,-1.418424248695373535e+00,1.494767785072326660e+00
-1.642218708992004395e+00,-1.147508025169372559e+00,1.506807684898376465e+00
-1.262544512748718262e+00,-1.235233902931213379e+00,1.670365214347839355e+00
-9.903546571731567383e-01,-1.339221954345703125e+00,1.745397090911865234e+00
9.903553724288940430e-01,-1.339221954345703125e+00,1.745397090911865234e+00
1.262544989585876465e+00,-1.235233902931213379e+00,1.670365214347839355e+00
1.642219185829162598e+00,-1.147508025169372559e+00,1.506807684898376465e+00
-1.809182882308959961e+00,-8.829118013381958008e-01,1.451232552528381348e+00
-1.644164919853210449e+00,-8.906890749931335449e-01,1.648688197135925293e+00
1.644165396690368652e+00,-8.906890749931335449e-01,1.648687958717346191e+00
1.809183359146118164e+00,-8.829118013381958008e-01,1.451232552528381348e+00
-1.841486930847167969e+00,-5.710536837577819824e-01,1.576937913894653320e+00
-1.732889652252197266e+00,-4.388756453990936279e-01,1.723402976989746094e+00
1.732890129089355469e+00,-4.388756453990936279e-01,1.723402976989746094e+00
1.841487407684326172e+00,-5.710536837577819824e-01,1.576937913894653320e+00
-1.890291571617126465e+00,-2.023331075906753540e-01,1.569107174873352051e+00
1.890292048454284668e+00,-2.023331075906753540e-01,1.569107174873352051e+00
-1.884429454803466797e+00,1.386890411376953125e-01,1.537787795066833496e+00
-1.674181342124938965e+00,9.419384598731994629e-02,1.734564661979675293e+00
1.674181818962097168e+00,9.419384598731994629e-02,1.734564661979675293e+00
1.884429931640625000e+00,1.386890411376953125e-01,1.537787795066833496e+00
-1.864696741104125977e+00,3.846064805984497070e-01,1.473832488059997559e+00
-1.621655702590942383e+00,4.900535941123962402e-01,1.670440912246704102e+00
1.621656179428100586e+00,4.900535941123962402e-01,1.670440912246704102e+00
1.864697217941284180e+00,3.846064805984497070e-01,1.473832488059997559e+00
-1.573858857154846191e+00,8.399610519409179688e-01,1.512667059898376465e+00
-1.260570049285888672e+00,9.455749988555908203e-01,1.698197841644287109e+00
1.260570526123046875e+00,9.455749988555908203e-01,1.698197841644287109e+00
1.573859333992004395e+00,8.399610519409179688e-01,1.512667059898376465e+00
-1.181305646896362305e+00,1.236915469169616699e+00,1.509768962860107422e+00
-8.707863092422485352e-01,1.229307413101196289e+00,1.695291876792907715e+00
-5.153887867927551270e-01,1.321751952171325684e+00,1.711116790771484375e+00
5.153895616531372070e-01,1.321751952171325684e+00,1.711116790771484375e+00
8.707869648933410645e-01,1.229307413101196289e+00,1.695291876792907715e+00
1.181306123733520508e+00,1.236915469169616699e+00,1.509769082069396973e+00
-8.348836302757263184e-01,1.485594630241394043e+00,1.496412634849548340e+00
-4.891498982906341553e-01,1.538806319236755371e+00,1.528319716453552246e+00
-1.538182795047760010e-01,1.588720083236694336e+00,1.544295549392700195e+00
1.538189798593521118e-01,1.588720083236694336e+00,1.544295549392700195e+00
4.891505539417266846e-01,1.538806080818176270e+00,1.528319716453552246e+00
8.348843455314636230e-01,1.485594630241394043e+00,1.496412634849548340e+00
-4.499733448028564453e-03,-1.755723714828491211e+00,1.818436026573181152e+00
4.500448703765869141e-03,-1.755723714828491211e+00,1.818436026573181152e+00
-1.394196301698684692e-01,-1.598952889442443848e+00,1.842535614967346191e+00
1.394203454256057739e-01,-1.598952889442443848e+00,1.842535614967346191e+00
-9.160981178283691406e-01,-1.199013829231262207e+00,1.830067276954650879e+00
-5.360694527626037598e-01,-1.223100900650024414e+00,1.878894090652465820e+00
-1.417424380779266357e-01,-1.221280097961425781e+00,1.936699867248535156e+00
1.417431533336639404e-01,-1.221280097961425781e+00,1.936699867248535156e+00
5.360701680183410645e-01,-1.223100900650024414e+00,1.878893852233886719e+00
9.160987734794616699e-01,-1.199013829231262207e+00,1.830067276954650879e+00
-1.488842844963073730e+00,-7.441883087158203125e-01,1.806962609291076660e+00
-1.238168001174926758e+00,-8.953193426132202148e-01,1.825300455093383789e+00
-8.930034637451171875e-01,-8.019361495971679688e-01,1.919854640960693359e+00
-5.608640313148498535e-01,-9.087369441986083984e-01,1.992636322975158691e+00
-2.155169695615768433e-01,-9.153708815574645996e-01,2.065545558929443359e+00
2.155176848173141479e-01,-9.153708815574645996e-01,2.065545558929443359e+00
5.608647465705871582e-01,-9.087369441986083984e-01,1.992636322975158691e+00
8.930041790008544922e-01,-8.019361495971679688e-01,1.919854640960693359e+00
1.238168478012084961e+00,-8.953192830085754395e-01,1.825300455093383789e+00
1.488843321800231934e+00,-7.441883087158203125e-01,1.806962609291076660e+00
-1.575568318367004395e+00,-4.858575761318206787e-01,1.805266380310058594e+00
-1.250014662742614746e+00,-5.073249340057373047e-01,1.886535048484802246e+00
-6.098794937133789062e-01,-6.511346697807312012e-01,2.040296077728271484e+00
6.098802089691162109e-01,-6.511346697807312012e-01,2.040296077728271484e+00
1.250015139579772949e+00,-5.073249340057373047e-01,1.886534929275512695e+00
1.575568795204162598e+00,-4.858575761318206787e-01,1.805266380310058594e+00
-1.551787137985229492e+00,-1.729728132486343384e-01,1.816143393516540527e+00
-1.220239520072937012e+00,-1.765422523021697998e-01,1.918355941772460938e+00
-9.268722534179687500e-01,-1.357575654983520508e-01,2.030839920043945312e+00
9.268729090690612793e-01,-1.357575654983520508e-01,2.030839920043945312e+00
1.220240116119384766e+00,-1.765422523021697998e-01,1.918355941772460938e+00
1.551787614822387695e+00,-1.729728132486343384e-01,1.816143393516540527e+00
-1.488293647766113281e+00,1.894392818212509155e-01,1.825407624244689941e+00
-1.250980615615844727e+00,2.003208100795745850e-01,1.886145830154418945e+00
-8.654344081878662109e-01,1.298434734344482422e-01,2.027330875396728516e+00
8.654350638389587402e-01,1.298434734344482422e-01,2.027330875396728516e+00
1.250981211662292480e+00,2.003208249807357788e-01,1.886145710945129395e+00
1.488294124603271484e+00,1.894392818212509155e-01,1.825407743453979492e+00
-1.427721261978149414e+00,4.742482900619506836e-01,1.826351523399353027e+00
-1.264021992683410645e+00,5.263640880584716797e-01,1.860156655311584473e+00
-9.391442537307739258e-01,4.654401540756225586e-01,1.916659235954284668e+00
-5.889645814895629883e-01,5.317881703376770020e-01,1.998641610145568848e+00
-2.897791564464569092e-01,6.236623525619506836e-01,2.042294979095458984e+00
2.897798717021942139e-01,6.236623525619506836e-01,2.042294979095458984e+00
5.889652967453002930e-01,5.317881703376770020e-01,1.998641610145568848e+00
9.391448497772216797e-01,4.654401540756225586e-01,1.916659235954284668e+00
1.264022469520568848e+00,5.263640880584716797e-01,1.860156655311584473e+00
1.427721738815307617e+00,4.742482900619506836e-01,1.826351523399353027e+00
-1.191944837570190430e+00,7.959155440330505371e-01,1.795283675193786621e+00
-8.779319524765014648e-01,8.596188426017761230e-01,1.854656934738159180e+00
-5.402231216430664062e-01,9.019634723663330078e-01,1.902089834213256836e+00
-1.619252413511276245e-01,8.574301004409790039e-01,1.937160730361938477e+00
1.619259566068649292e-01,8.574301004409790039e-01,1.937160611152648926e+00
5.402238368988037109e-01,9.019634127616882324e-01,1.902089834213256836e+00
8.779327273368835449e-01,8.596187829971313477e-01,1.854656934738159180e+00
1.191945314407348633e+00,7.959155440330505371e-01,1.795283675193786621e+00
-7.433228492736816406e-01,1.071641445159912109e+00,1.810326457023620605e+00
-4.863890409469604492e-01,1.127522945404052734e+00,1.826220512390136719e+00
-1.932082623243331909e-01,1.221513390541076660e+00,1.802605986595153809e+00
1.932089775800704956e-01,1.221513390541076660e+00,1.802605986595153809e+00
4.863897562026977539e-01,1.127522945404052734e+00,1.826220512390136719e+00
7.433235645294189453e-01,1.071641445159912109e+00,1.810326457023620605e+00
-2.238857150077819824e-01,-6.691805720329284668e-01,2.228462696075439453e+00
2.238864302635192871e-01,-6.691805720329284668e-01,2.228462696075439453e+00
-4.190790951251983643e-01,4.681809246540069580e-01,2.138277769088745117e+00
4.190798103809356689e-01,4.681809246540069580e-01,2.138277769088745117e+00
