,tensorboard_name,p_kmeans,tac_nof,tac_filt,vis_nof,vis_filt,final_val
0,12thFeb_5runs_80ep_n0.05_scf1.03_curric1,1.0,0.8700249203995093,0.9485075109040559,0,0.9719697453758933,0.9733935784862702
0,12thFeb_5runs_80ep_n0.05_scf1.03_curric1,0.9,0.8697761644178362,0.9512438240335949,0,0.9714646926431945,0.9733935784862702
0,12thFeb_5runs_80ep_n0.05_scf1.03_curric1,0.8,0.8589552720980858,0.9482587522535182,0,0.973232365918882,0.9733935784862702
0,12thFeb_5runs_80ep_n0.05_scf1.03_curric1,0.7,0.860696562190554,0.9456468162251942,0,0.9724747972054915,0.9733935784862702
0,12thFeb_5runs_80ep_n0.05_scf1.03_curric1,0.6,0.8590796474200576,0.9385572556239455,0,0.9704545907901995,0.9733935784862702
0,12thFeb_5runs_80ep_n0.05_scf1.03_curric1,0.5,0.8506219360365797,0.9317164616798287,0,0.9704545871777968,0.9733935784862702
0,12thFeb_5runs_80ep_n0.05_scf1.03_curric1,0.4,0.8575871088611546,0.9159204390511584,0,0.9696970121427015,0.9733935784862702
0,12thFeb_5runs_80ep_n0.05_scf1.03_curric1,0.3,0.843159250359037,0.8975124803941641,0,0.9590909562327645,0.9733935784862702
0,12thFeb_5runs_80ep_n0.05_scf1.03_curric1,0.2,0.8308458159218973,0.829228902930644,0,0.919191963744886,0.9733935784862702
0,12thFeb_5runs_80ep_n0.05_scf1.03_curric1,0.1,0.8078358653766006,0.661567196917178,0,0.7505050915660281,0.9733935784862702
